<?xml version="1.0" standalone="no"?>
<!DOCTYPE svg PUBLIC "-//W3C//DTD SVG 20010904//EN"
 "http://www.w3.org/TR/2001/REC-SVG-20010904/DTD/svg10.dtd">
<svg version="1.0" xmlns="http://www.w3.org/2000/svg"
 width="2272.000000pt" height="1704.000000pt" viewBox="0 0 2272.000000 1704.000000"
 preserveAspectRatio="xMidYMid meet">
<metadata>
Created by potrace 1.15, written by Peter Selinger 2001-2017
</metadata>
<g transform="translate(0.000000,1704.000000) scale(0.100000,-0.100000)"
fill="#000000" stroke="none">
<path d="M0 17014 c0 -13 5 -24 12 -24 9 0 9 -3 0 -12 -15 -15 -16 -64 -2 -73
6 -3 10 -11 10 -16 0 -6 -5 -7 -11 -4 -7 5 -9 -11 -7 -47 3 -47 6 -53 27 -56
l24 -4 -24 -12 c-16 -8 -25 -22 -27 -43 -3 -26 1 -32 20 -36 l23 -4 -22 -8
c-25 -8 -31 -44 -13 -89 6 -17 6 -26 0 -26 -6 0 -10 -5 -10 -10 0 -7 7 -7 21
0 11 6 25 9 32 6 9 -3 8 -5 -1 -5 -21 -1 -43 -28 -36 -44 3 -8 0 -18 -5 -22
-6 -3 -8 -11 -4 -18 8 -14 11 -57 3 -57 -3 0 -6 -9 -7 -19 -1 -13 3 -18 11
-15 8 3 16 -3 18 -14 4 -15 1 -18 -14 -14 -18 4 -19 0 -16 -69 2 -41 7 -80 11
-86 5 -7 5 -18 1 -24 -3 -6 -7 -31 -9 -55 -2 -35 0 -42 10 -34 8 6 12 37 12
85 0 41 2 78 5 81 4 3 15 0 27 -7 14 -9 19 -20 15 -35 -3 -12 -1 -25 5 -28 19
-12 12 -24 -12 -19 -12 3 -18 1 -12 -4 17 -14 17 -43 0 -43 -21 0 -19 -17 4
-29 21 -12 81 -10 74 2 -3 5 -18 5 -34 2 -24 -5 -28 -4 -23 9 3 9 10 14 14 11
8 -5 60 43 60 56 0 4 -5 19 -11 33 -15 33 -31 23 -18 -11 11 -29 6 -53 -11
-53 -5 0 -10 20 -10 45 0 34 5 47 20 55 17 9 22 7 32 -17 16 -37 17 -55 4 -72
-9 -12 -8 -13 3 -7 10 7 12 3 6 -15 -4 -16 -3 -20 3 -11 12 18 47 11 48 -8 0
-8 4 -23 8 -33 10 -21 -2 -37 -30 -41 -10 -2 -21 -14 -24 -27 -7 -28 -12 -29
-62 -9 -28 10 -38 20 -40 39 -3 28 -33 40 -52 21 -8 -9 -6 -11 9 -8 15 2 20
-3 21 -24 3 -30 -14 -48 -26 -28 -5 8 -9 7 -14 -6 -3 -9 -4 -19 -1 -22 3 -3 5
1 5 8 0 11 2 12 13 1 10 -10 9 -15 -3 -24 -9 -7 -17 -25 -18 -41 -2 -28 -1
-29 12 -11 8 11 12 24 9 29 -4 5 -1 6 6 2 6 -4 19 -2 27 5 11 9 18 9 26 1 7
-7 20 -12 30 -12 11 0 15 -5 12 -14 -3 -8 5 -21 17 -30 30 -21 13 -44 -20 -27
-23 13 -28 6 -8 -13 15 -16 32 -11 62 20 30 30 60 32 52 4 -4 -15 0 -20 14
-20 10 0 19 5 19 10 0 6 -4 10 -10 10 -15 0 -12 26 6 41 11 9 14 22 9 46 -5
29 -3 34 21 43 32 13 44 5 20 -13 -11 -8 -15 -19 -10 -30 8 -22 26 -22 22 1
-4 23 45 29 77 8 13 -9 36 -16 50 -16 14 0 25 -5 25 -12 0 -9 3 -9 12 0 8 8 8
15 -1 25 -9 12 -8 16 4 21 8 3 15 14 15 25 0 11 4 23 10 26 5 3 10 15 10 26 0
10 6 19 13 19 22 0 28 -12 14 -29 -8 -9 -21 -35 -31 -59 -16 -41 -16 -43 1
-40 11 2 17 12 16 25 -3 22 29 43 35 24 5 -16 29 -13 36 4 4 10 -1 14 -16 12
-11 -1 -23 4 -26 12 -3 9 0 11 7 6 8 -4 14 1 18 14 3 14 12 20 27 18 18 -2 20
2 18 26 -4 28 -3 28 16 10 12 -10 28 -24 36 -31 18 -15 19 -21 6 -42 -8 -13
-13 -13 -40 2 -29 16 -30 16 -30 -2 0 -13 7 -20 20 -20 11 0 20 -4 20 -10 0
-15 27 -12 44 5 21 21 29 19 16 -6 -14 -26 -6 -36 15 -19 19 16 19 34 1 50 -8
6 -12 19 -9 27 6 14 8 14 19 -2 7 -9 17 -14 23 -10 7 3 11 -3 11 -15 0 -13 5
-20 13 -17 6 2 11 15 9 28 -1 18 0 21 7 9 9 -12 14 -11 34 8 27 26 37 28 37 7
0 -8 -6 -15 -13 -15 -18 0 -58 -35 -61 -52 -5 -31 -18 -58 -27 -58 -5 0 -28
-18 -50 -40 -45 -44 -74 -51 -82 -19 -5 17 -9 19 -27 9 -11 -6 -18 -15 -15
-21 10 -14 23 -11 29 9 3 10 4 7 3 -7 -2 -29 -19 -37 -38 -18 -26 25 -49 27
-70 6 -13 -13 -25 -17 -35 -11 -18 10 -76 3 -69 -9 3 -4 17 -4 30 1 18 7 28 5
39 -6 9 -8 31 -16 51 -18 20 -2 38 -6 42 -10 9 -8 -27 -46 -44 -46 -7 0 -13
-4 -13 -10 0 -5 5 -10 10 -10 6 0 10 -4 10 -10 0 -5 -7 -10 -15 -10 -8 0 -15
5 -15 10 0 6 -7 10 -15 10 -10 0 -15 -10 -15 -31 0 -18 4 -28 10 -24 6 4 7 11
4 17 -4 6 1 8 15 3 24 -7 54 20 46 42 -2 6 3 17 11 24 13 10 17 10 24 -1 5 -8
13 -11 17 -6 4 5 2 11 -4 13 -18 6 -16 43 1 43 8 0 22 7 31 16 15 15 17 15 31
-2 14 -17 15 -18 10 -1 -3 11 0 20 10 24 21 8 25 1 30 -47 3 -30 0 -40 -9 -37
-6 2 -11 11 -9 21 2 9 -1 16 -7 16 -21 0 -41 -13 -41 -27 0 -8 4 -12 9 -9 18
11 41 -6 41 -30 0 -28 -15 -31 -29 -6 -10 16 -10 16 -11 0 0 -10 5 -18 10 -18
6 0 10 -13 10 -29 0 -24 4 -29 20 -28 24 2 26 13 4 21 -29 11 -5 20 46 17 53
-3 59 3 35 35 -17 23 -19 34 -5 34 6 0 10 -7 10 -15 0 -8 5 -15 10 -15 6 0 10
-7 10 -16 0 -8 5 -12 11 -9 7 5 5 12 -5 24 -8 9 -20 30 -26 46 -12 29 -12 30
-21 8 -4 -13 -13 -23 -18 -23 -15 0 -23 18 -11 25 8 5 7 11 -1 21 -17 20 -5
28 21 14 26 -14 37 -6 20 15 -7 8 -22 13 -34 11 -11 -2 -15 -1 -8 1 15 5 15
16 1 30 -7 7 -2 15 15 27 15 9 26 12 26 7 0 -5 -5 -13 -10 -16 -17 -10 -11
-20 21 -39 18 -11 29 -14 25 -8 -4 7 4 14 19 18 29 7 47 -3 27 -15 -23 -14 -3
-40 28 -36 31 4 56 -16 47 -39 -3 -7 -1 -18 5 -24 7 -7 6 -16 -1 -30 -18 -33
-13 -38 12 -12 l22 25 3 -23 c2 -12 8 -22 13 -22 16 0 5 44 -16 62 -18 15 -18
17 -3 18 22 0 14 23 -21 62 -29 33 -38 35 -46 7 -5 -16 -9 -18 -21 -8 -11 9
-11 15 -3 25 8 10 5 15 -17 20 l-27 7 21 18 c12 9 17 19 11 21 -18 6 1 36 28
43 21 5 24 10 19 31 -5 17 -3 23 4 19 5 -3 10 -19 10 -36 0 -22 -5 -29 -20
-29 -23 0 -23 0 -10 -34 5 -15 17 -26 29 -26 13 0 20 -9 25 -30 5 -28 7 -29
26 -18 11 7 20 20 20 28 0 13 1 13 10 0 6 -10 6 -16 0 -18 -16 -6 -12 -22 5
-22 8 0 15 4 15 10 0 5 8 7 18 4 10 -4 13 -3 6 3 -6 4 -13 16 -17 26 -3 9 -16
17 -27 17 -20 0 -20 0 0 20 24 24 25 36 5 44 -8 3 -15 10 -15 16 0 5 7 10 15
10 8 0 15 5 15 10 0 6 -10 8 -24 4 -21 -5 -23 -3 -19 20 4 19 1 26 -10 26 -9
0 -18 -4 -21 -9 -3 -4 -17 -6 -31 -3 -24 4 -25 6 -10 22 17 19 11 31 -13 22
-14 -5 -13 -2 2 14 19 19 19 19 -10 24 -20 4 -25 8 -16 14 11 6 10 10 -3 20
-14 10 -11 12 20 8 24 -3 33 -7 24 -13 -9 -5 -5 -10 14 -14 15 -4 27 -13 27
-21 0 -16 16 -19 25 -5 3 6 -3 14 -12 20 -14 8 -15 12 -6 22 10 10 14 9 19 -4
4 -11 17 -17 35 -17 32 0 39 -19 14 -40 -13 -10 -15 -9 -15 11 l0 24 -20 -25
c-13 -17 -15 -26 -7 -28 38 -11 39 -12 28 -26 -8 -10 -8 -16 3 -26 9 -6 20 -9
25 -5 7 4 8 -2 2 -17 -6 -17 -2 -35 16 -70 14 -27 29 -48 34 -48 16 0 9 23
-17 57 -26 34 -26 35 -4 31 15 -2 26 -15 35 -41 12 -35 11 -38 -12 -57 l-26
-20 26 0 c17 0 28 7 32 21 5 15 10 18 18 10 7 -7 6 -15 -3 -26 -10 -12 -10
-15 4 -15 9 0 16 -4 16 -8 0 -4 16 -8 35 -9 35 -1 50 19 23 31 -7 2 4 3 25 1
28 -3 37 0 37 12 0 12 -3 13 -14 4 -17 -14 -29 0 -20 23 7 18 -20 66 -37 66
-6 0 -7 -5 -4 -10 4 -6 1 -17 -5 -25 -7 -8 -10 -21 -7 -29 3 -8 1 -17 -6 -19
-9 -3 -9 -7 1 -19 10 -13 10 -17 -2 -21 -20 -8 -26 1 -26 45 0 33 -3 37 -22
35 -15 -1 -23 4 -26 17 -2 11 0 16 7 12 16 -10 34 3 23 17 -5 7 -13 23 -17 37
-4 14 -15 34 -24 44 -9 11 -11 16 -4 13 6 -4 14 -3 17 2 4 6 18 6 37 1 26 -8
30 -7 25 6 -3 9 -6 18 -6 20 0 2 -10 5 -22 5 -18 1 -16 3 7 8 19 4 31 13 33
26 8 41 23 41 20 0 -2 -28 1 -40 10 -40 9 0 14 17 16 50 3 46 1 52 -22 63 -15
7 -36 12 -48 12 -12 0 -25 6 -27 13 -3 6 -6 2 -6 -10 -1 -13 2 -22 7 -22 24 4
52 -3 52 -12 0 -7 -10 -9 -26 -5 -22 6 -24 5 -15 -13 6 -11 16 -21 23 -24 7
-2 10 -8 6 -12 -5 -5 -17 0 -28 10 -11 10 -28 15 -39 12 -18 -4 -83 12 -95 24
-3 2 13 4 35 4 21 0 39 -3 39 -8 0 -5 7 -1 17 8 20 20 4 34 -31 28 -13 -3 -28
2 -36 12 -12 15 -12 19 4 31 11 7 16 20 13 29 -4 9 -1 15 8 15 21 0 19 -30 -2
-46 -10 -7 -15 -16 -11 -20 4 -4 14 -2 21 5 8 6 22 9 31 5 20 -8 20 -3 0 39
-9 18 -28 38 -44 45 -16 7 -33 27 -41 45 -6 18 -22 40 -33 49 -18 15 -19 18
-3 18 9 0 17 -4 17 -10 0 -5 9 -10 20 -10 11 0 20 -4 20 -8 0 -8 14 -16 62
-40 5 -2 8 5 8 15 0 11 5 24 12 31 9 9 8 12 -4 12 -9 0 -18 -7 -22 -15 -7 -19
-32 -20 -39 -1 -4 10 0 12 14 9 10 -3 19 0 19 6 0 6 -6 11 -14 11 -8 0 -16 7
-20 15 -4 11 1 15 19 15 16 0 23 -4 19 -14 -4 -9 7 -15 38 -19 23 -3 44 -11
46 -16 2 -6 10 -11 19 -11 10 0 12 -6 8 -22 -6 -17 -4 -20 10 -15 9 4 19 7 21
7 2 0 4 7 4 15 0 8 -5 15 -11 15 -5 0 -7 5 -3 11 4 7 0 9 -14 5 -17 -6 -19 -3
-15 14 7 25 32 23 47 -5 32 -57 31 -57 52 -33 19 21 19 21 0 14 -22 -8 -36 8
-36 39 1 20 1 20 15 1 13 -17 15 -18 15 -3 0 17 11 22 23 10 4 -3 1 -13 -6
-21 -10 -13 -9 -15 3 -10 8 3 23 -3 33 -12 16 -16 16 -18 -2 -34 -11 -10 -25
-15 -30 -11 -18 11 -12 -6 12 -34 12 -15 29 -25 36 -23 8 3 12 -2 9 -14 -2
-12 -12 -19 -26 -18 -29 1 -28 -2 13 -43 37 -37 42 -48 24 -58 -6 -4 -13 2
-16 14 -5 21 -23 30 -23 11 0 -5 -7 -10 -16 -10 -14 0 -14 -2 -3 -16 9 -11 15
-12 17 -5 3 9 7 9 18 0 8 -6 14 -15 14 -19 0 -9 -31 -6 -48 4 -7 4 -20 2 -29
-6 -15 -12 -15 -11 -4 10 10 19 9 22 -9 22 -15 0 -20 -7 -20 -24 0 -13 -3 -32
-7 -42 -4 -12 -3 -15 5 -10 19 12 14 -19 -6 -37 -14 -13 -21 -14 -30 -5 -8 8
-15 8 -27 -2 -22 -19 -18 -28 10 -22 15 2 25 0 25 -7 0 -6 -6 -11 -13 -11 -7
0 -13 -9 -14 -20 -1 -16 2 -20 18 -15 13 5 17 2 14 -7 -3 -8 4 -23 16 -34 l22
-19 -12 23 c-7 13 -10 33 -8 45 4 18 5 17 6 -5 1 -32 1 -31 35 -18 17 6 27 6
31 -1 4 -5 16 -7 27 -3 29 9 13 -15 -18 -26 -15 -6 -22 -15 -18 -25 3 -8 1
-15 -5 -15 -6 0 -11 7 -11 15 0 8 -4 15 -10 15 -14 0 -12 -19 5 -55 13 -29 14
-29 20 -7 4 12 11 22 14 22 16 0 19 -13 8 -31 -10 -16 -9 -21 2 -29 12 -7 13
-11 1 -24 -11 -14 -11 -16 1 -11 25 9 42 45 29 60 -9 11 -7 12 12 8 22 -4 22
-4 -3 13 -14 9 -31 25 -37 35 -10 16 -8 17 16 15 18 -1 26 -7 24 -18 -1 -10 7
-18 22 -22 13 -3 26 -15 29 -26 3 -11 13 -20 24 -20 15 0 16 2 3 10 -13 9 -13
12 2 20 9 6 26 23 36 38 18 24 19 32 8 62 -12 34 -11 35 14 37 13 0 28 -3 31
-9 4 -7 21 -8 45 -3 l39 8 -28 9 c-28 10 -28 10 -7 25 12 8 26 27 32 42 9 23
11 24 17 8 4 -10 10 -18 14 -18 4 1 7 -2 7 -6 0 -5 -4 -8 -10 -8 -5 0 -15 -6
-22 -12 -9 -10 -9 -16 0 -25 9 -9 12 -9 12 1 0 9 5 8 16 -3 22 -22 41 -20 21
2 -10 10 -14 22 -10 25 11 12 21 8 26 -13 3 -12 14 -20 25 -20 31 0 36 19 7
26 -27 7 -35 24 -11 24 8 0 16 5 18 12 5 15 37 3 45 -18 3 -9 0 -19 -6 -24 -7
-4 -11 -11 -9 -16 1 -5 -9 -10 -24 -12 -36 -4 -36 -18 -1 -27 15 -3 32 -14 39
-23 7 -9 23 -17 36 -17 12 0 23 -6 23 -12 0 -7 5 -12 10 -10 6 1 9 5 7 10 -1
4 5 7 13 7 11 0 12 -5 6 -23 -5 -13 -7 -35 -4 -50 4 -17 1 -27 -7 -27 -7 0
-10 -7 -6 -15 3 -9 0 -15 -10 -15 -10 0 -14 6 -11 14 4 9 -3 14 -20 14 -14 0
-29 5 -33 12 -6 9 -10 7 -15 -9 -8 -26 -25 -28 -25 -3 0 10 -5 23 -10 28 -7 7
0 9 20 8 16 -1 37 -9 46 -18 9 -10 19 -14 23 -10 3 4 0 9 -7 11 -10 4 -10 8
-1 19 9 11 9 14 -1 14 -9 0 -10 4 -2 13 8 10 6 13 -9 13 -10 0 -19 -6 -19 -13
0 -7 -4 -13 -10 -13 -5 0 -10 7 -10 15 0 18 -5 18 -29 5 -14 -7 -23 -4 -37 12
-19 20 -19 21 6 14 19 -6 21 -5 10 3 -24 17 -38 13 -56 -18 -10 -17 -22 -27
-26 -25 -8 5 -53 -36 -60 -54 -2 -4 -5 -6 -8 -5 -3 1 -13 5 -22 8 -11 4 -18 3
-18 -5 0 -6 4 -9 9 -6 5 3 12 -5 15 -19 7 -28 25 -34 22 -7 -1 11 5 16 16 14
13 -2 17 3 15 20 -1 15 4 23 17 26 12 3 16 0 11 -8 -5 -9 -2 -9 11 -2 11 5 25
7 32 5 6 -3 12 2 12 11 0 9 2 16 5 16 9 0 45 -40 45 -50 0 -16 -20 -12 -26 5
-8 19 -24 20 -24 1 0 -7 10 -16 22 -20 18 -4 20 -8 10 -18 -9 -9 -17 -7 -36
11 -18 17 -29 21 -41 13 -13 -7 -14 -11 -6 -17 7 -4 15 -4 18 -1 3 3 17 -4 31
-14 27 -21 52 -26 52 -10 0 6 7 10 15 10 8 0 24 5 35 12 16 10 23 9 43 -10 30
-29 34 -28 42 8 4 17 10 28 14 26 12 -8 8 108 -4 117 -6 5 -4 7 5 5 16 -3 20
2 20 27 0 14 -3 14 -30 0 -48 -25 -58 -17 -15 12 31 21 36 28 22 31 -10 2 -25
-2 -33 -9 -8 -6 -17 -9 -20 -6 -8 8 6 28 16 22 4 -3 10 4 13 15 3 13 10 18 21
14 11 -4 16 -1 16 11 0 12 -5 15 -20 10 -17 -5 -20 -2 -20 21 0 15 -7 36 -17
46 -9 10 -13 21 -9 25 4 4 11 1 16 -7 5 -8 12 -12 15 -9 8 9 -6 40 -15 34 -5
-3 -11 -1 -14 4 -14 21 16 21 33 0 14 -18 17 -29 10 -47 -12 -31 6 -55 37 -49
15 3 21 0 17 -9 -3 -8 3 -16 13 -20 43 -13 49 -21 46 -58 -2 -21 1 -36 7 -36
6 0 11 -9 11 -19 0 -20 25 -35 41 -25 5 3 8 2 7 -3 -2 -4 2 -9 7 -10 6 -2 9 4
9 12 -4 41 -6 49 -11 38 -3 -9 -10 -9 -28 3 -28 18 -23 44 9 45 l21 0 -22 16
c-26 17 -30 33 -9 33 12 0 30 -34 27 -53 -1 -4 5 -10 14 -13 8 -3 17 -21 21
-40 3 -19 10 -31 15 -29 4 3 6 12 2 20 -8 22 15 18 27 -4 14 -28 12 -41 -5
-35 -8 4 -21 2 -28 -4 -24 -19 -67 -23 -73 -7 -4 8 -11 15 -17 15 -6 0 0 -11
13 -25 13 -14 26 -22 29 -18 3 5 13 8 21 9 8 1 25 4 37 8 16 5 23 2 28 -14 4
-12 14 -20 23 -19 34 3 43 -1 41 -18 -3 -31 1 -39 11 -23 8 13 10 13 10 -1 0
-9 -7 -19 -15 -23 -19 -7 -19 -30 0 -46 13 -10 15 -9 15 8 0 12 5 24 11 28 6
3 8 17 5 30 -5 17 -2 24 9 24 8 0 15 -7 15 -15 0 -8 5 -15 11 -15 7 0 9 10 7
24 -3 16 0 27 9 30 8 3 11 11 8 17 -4 6 -14 7 -24 4 -9 -4 -23 -8 -31 -9 -8
-2 -16 -8 -16 -14 -1 -7 -2 -15 -3 -19 -1 -10 -48 60 -52 78 -5 22 33 81 43
66 13 -20 9 -35 -11 -42 -13 -4 -17 -12 -13 -30 5 -28 20 -33 27 -10 16 51 17
51 26 28 8 -22 12 -25 42 -27 6 -1 15 -5 19 -10 4 -6 12 -5 20 2 8 6 19 7 28
2 16 -10 30 -4 30 11 0 6 -4 7 -10 4 -5 -3 -10 -2 -10 3 0 6 7 12 15 16 17 6
31 -34 21 -60 -6 -15 -8 -15 -29 -1 -15 10 -29 12 -38 6 -11 -7 -9 -9 7 -9 12
0 25 -7 28 -16 9 -22 8 -23 -14 -17 -11 3 -20 9 -20 14 0 5 -8 9 -18 9 -13 0
-17 -8 -17 -32 0 -25 -4 -33 -17 -32 -9 1 -19 -5 -22 -12 -3 -8 1 -14 8 -14 8
0 22 -3 31 -7 14 -5 16 -2 10 15 -7 23 10 32 18 10 2 -8 8 -9 13 -4 5 5 4 11
-3 13 -16 6 -17 36 -1 31 23 -8 34 -37 20 -58 -11 -18 -10 -20 12 -20 14 0 28
-4 31 -10 3 -5 11 -10 17 -10 6 0 3 9 -7 20 -10 11 -13 20 -7 20 7 0 12 -4 12
-10 0 -5 7 -10 15 -10 8 0 15 -6 15 -13 0 -7 9 -19 20 -27 25 -18 26 -33 1
-25 -11 3 -22 1 -25 -4 -4 -5 4 -13 16 -17 13 -4 26 -12 31 -18 5 -8 10 -6 17
4 8 12 12 13 19 1 6 -9 10 -5 13 17 3 24 1 28 -13 25 -11 -3 -24 5 -35 24 -26
42 -66 72 -94 73 -18 0 -21 3 -11 9 8 5 11 16 6 30 -4 14 -1 23 9 27 9 3 16
15 16 25 0 10 5 19 10 19 6 0 10 -9 10 -20 0 -11 6 -20 14 -20 8 0 23 -3 33
-6 14 -4 15 -4 4 4 -7 5 -11 15 -7 20 4 6 4 23 0 38 l-7 27 -14 -29 c-12 -26
-13 -27 -8 -4 2 14 5 28 5 33 0 4 6 7 14 7 8 0 17 8 20 17 5 13 9 14 19 3 9
-10 9 -13 -1 -17 -15 -6 -17 -93 -2 -93 6 0 1 -10 -10 -22 -13 -15 -17 -24 -9
-27 6 -2 15 3 20 10 11 19 22 4 14 -20 -12 -38 -57 -19 -57 23 -1 32 -20 30
-25 -3 -2 -15 1 -20 9 -15 7 5 9 0 6 -14 -3 -12 -3 -21 1 -20 26 3 51 -4 51
-15 0 -21 42 -55 47 -39 3 6 9 12 14 12 4 0 6 -7 3 -15 -4 -10 0 -15 11 -15
12 0 15 5 10 20 -6 18 -4 18 25 9 40 -15 52 -3 21 22 -16 13 -27 16 -36 9 -17
-14 -37 8 -25 31 7 12 5 19 -6 23 -8 3 -12 10 -9 16 10 17 25 11 36 -14 7 -14
17 -22 25 -19 9 3 14 -2 14 -16 0 -12 6 -21 15 -21 8 0 15 7 15 15 0 16 12 20
23 8 4 -3 2 -12 -3 -18 -7 -9 -6 -14 4 -18 18 -7 31 22 16 37 -14 14 -13 52 3
68 6 8 17 23 23 33 12 22 45 27 51 8 3 -7 -7 -17 -22 -23 -18 -7 -25 -15 -21
-25 3 -8 1 -15 -4 -15 -6 0 -10 -5 -10 -11 0 -5 10 -9 23 -7 20 3 22 0 19 -40
-3 -33 0 -47 15 -57 14 -10 21 -11 32 -2 11 10 13 9 9 -3 -2 -8 -20 -17 -39
-20 l-34 -5 53 -18 c51 -17 78 -16 67 4 -4 5 -16 9 -28 9 -19 1 -20 2 -7 13
16 13 24 51 9 41 -5 -3 -10 2 -10 10 -1 9 -2 22 -3 29 0 6 6 22 15 35 l16 22
19 -21 c19 -21 19 -22 -3 -15 -25 8 -42 -11 -18 -20 10 -4 13 -13 9 -26 -4
-14 -2 -18 5 -14 15 10 14 -17 -1 -32 -9 -9 -7 -12 13 -12 13 0 30 4 38 9 12
8 12 12 -2 26 -19 19 -22 35 -6 35 6 0 9 6 6 14 -7 18 20 30 29 14 4 -7 2 -14
-4 -16 -18 -6 -15 -42 4 -42 8 0 12 5 9 11 -4 6 1 16 10 23 16 12 16 13 2 19
-10 4 -14 12 -11 22 5 13 2 15 -17 10 -28 -7 -66 16 -55 33 4 7 19 12 34 12
20 0 23 3 14 12 -9 9 -17 10 -30 2 -13 -8 -20 -8 -30 2 -15 16 -16 34 -2 34 6
0 10 -5 10 -11 0 -5 5 -7 10 -4 6 4 8 11 5 16 -4 5 1 9 9 9 9 0 16 -7 16 -15
0 -9 10 -15 26 -15 16 0 23 4 18 11 -3 6 0 15 7 20 12 8 12 11 -1 20 -12 8
-10 9 8 4 16 -5 22 -3 20 7 -3 15 49 13 68 -3 16 -13 25 1 14 21 -5 10 -6 20
-3 24 3 3 2 6 -4 6 -6 0 -14 7 -17 16 -5 13 -1 15 19 10 24 -6 25 -4 25 34 0
25 4 39 10 35 6 -3 10 -22 10 -41 0 -24 4 -34 13 -31 7 2 11 18 9 41 -3 36 11
49 22 21 3 -8 11 -14 17 -13 6 2 14 -3 16 -9 3 -7 -2 -13 -11 -13 -16 0 -19
-37 -3 -57 6 -8 4 -18 -6 -28 -10 -9 -18 -11 -22 -5 -12 19 -36 11 -35 -12 1
-13 2 -31 1 -41 -1 -17 -2 -17 -17 -2 -11 11 -25 14 -42 10 -16 -4 -28 -1 -33
7 -7 11 -9 11 -9 0 0 -7 -5 -10 -10 -7 -6 3 -10 2 -10 -3 0 -5 9 -12 20 -15
24 -6 27 -32 4 -41 -21 -8 -40 4 -23 15 7 4 11 10 8 13 -3 3 -15 -2 -28 -10
l-23 -16 27 -18 c37 -24 55 -53 45 -70 -7 -12 -11 -9 -20 10 -10 25 -10 25 -6
1 3 -17 -1 -25 -15 -28 -11 -3 -19 -12 -17 -21 4 -21 28 -28 28 -8 0 9 5 16
10 16 15 0 12 -22 -6 -48 -17 -24 -40 -29 -47 -9 -3 9 -13 8 -42 -6 -28 -13
-35 -21 -27 -29 9 -9 17 -7 32 7 17 16 23 17 30 6 10 -18 60 -6 60 14 0 8 5
14 12 13 6 -2 13 9 14 24 2 15 8 37 15 49 9 17 9 24 0 27 -6 2 -11 10 -11 18
0 8 -4 14 -10 14 -18 0 -10 29 9 35 11 3 21 13 23 22 3 15 4 15 20 0 10 -11
19 -13 23 -7 4 6 11 8 16 4 18 -11 39 17 33 42 -5 19 -3 23 10 18 11 -4 16 -1
16 10 0 19 16 22 22 4 6 -18 44 24 50 56 3 14 1 26 -3 26 -5 0 -6 7 -3 15 4 8
1 15 -5 15 -20 0 -11 15 19 33 18 11 30 26 30 40 0 14 3 18 10 11 12 -12 3
-44 -11 -44 -4 0 -14 -10 -20 -22 -11 -20 -11 -22 3 -10 12 10 18 10 23 1 4
-6 2 -15 -5 -19 -7 -5 -11 -19 -8 -34 3 -15 1 -29 -3 -32 -15 -9 -10 -20 14
-32 12 -6 17 -11 10 -11 -6 -1 -9 -10 -6 -21 3 -11 0 -20 -6 -20 -6 0 -11 5
-11 10 0 6 -4 10 -9 10 -5 0 -4 -11 2 -25 12 -25 27 -34 27 -15 0 6 4 10 10
10 5 0 7 -7 4 -15 -8 -19 -23 -19 -44 0 -16 14 -18 14 -23 -5 -4 -18 0 -20 34
-20 22 0 52 -8 66 -17 26 -17 27 -17 20 0 -4 11 -1 20 8 24 10 3 13 12 10 24
-4 11 -2 19 4 19 6 0 11 -9 11 -19 0 -26 37 -24 44 2 4 15 11 18 30 15 14 -3
26 -1 26 3 0 5 -9 9 -20 9 -23 0 -27 18 -6 26 30 11 9 44 -36 58 -11 3 -18 15
-18 31 0 15 4 24 10 20 6 -4 8 -10 5 -15 -3 -5 8 -16 25 -25 16 -8 30 -12 30
-8 0 5 5 1 10 -7 5 -8 7 -23 4 -33 -7 -22 12 -47 37 -47 26 0 24 14 -3 29 -20
10 -20 10 -2 6 22 -6 63 19 51 31 -4 4 -13 2 -19 -4 -20 -20 -28 -14 -22 17 5
23 2 32 -14 40 -15 8 -23 7 -32 -4 -7 -8 -17 -15 -22 -15 -6 0 -5 6 2 15 6 8
9 19 5 25 -16 25 9 28 40 5 21 -17 34 -22 37 -14 2 7 12 9 25 5 18 -6 22 -15
21 -48 0 -23 5 -44 13 -50 11 -8 10 -9 -3 -4 -21 6 -48 -2 -48 -15 0 -5 8 -9
19 -9 14 0 17 -6 13 -25 -6 -34 -22 -42 -29 -16 -4 15 -13 21 -34 21 -22 0
-27 -4 -22 -16 5 -14 2 -16 -20 -10 -20 5 -27 3 -27 -9 0 -22 43 -19 58 5 7
12 17 18 22 15 16 -10 11 -25 -7 -25 -14 0 -15 -2 -4 -12 11 -10 14 -10 18 -1
3 8 14 11 29 7 18 -5 24 -2 24 10 0 34 26 14 36 -28 8 -35 7 -43 -3 -39 -7 3
-13 9 -13 14 0 5 -9 9 -20 9 -23 0 -25 -6 -6 -25 43 -43 100 2 59 47 -14 17
-15 22 -4 26 10 3 8 9 -10 22 -19 15 -21 22 -12 42 8 18 7 26 -3 36 -16 15
-18 32 -5 32 5 0 12 -8 15 -18 4 -10 18 -23 34 -29 l27 -12 -30 5 c-24 4 -27
3 -13 -6 9 -6 15 -17 12 -25 -4 -8 -1 -15 5 -15 19 0 61 31 55 41 -3 5 1 9 9
9 7 0 19 -11 25 -25 6 -14 18 -25 27 -25 8 0 15 -7 15 -15 0 -8 -3 -14 -7 -14
-31 5 -19 -6 36 -32 45 -22 67 -27 74 -20 6 6 21 11 34 11 20 0 23 -4 18 -27
-3 -16 -2 -21 1 -13 16 36 26 40 43 17 10 -12 20 -30 24 -39 4 -11 12 -15 21
-12 14 5 14 8 0 29 -8 13 -22 26 -30 29 -18 7 -18 26 0 26 13 0 26 20 26 41 0
5 -6 9 -14 9 -8 0 -16 7 -20 15 -3 9 0 15 9 15 9 0 15 10 15 25 0 14 5 25 11
25 6 0 9 -6 6 -14 -9 -24 39 -15 58 10 20 27 51 33 41 9 -3 -8 -1 -15 5 -15 5
0 19 -9 30 -19 21 -19 21 -19 1 -30 -25 -14 -35 -50 -16 -58 8 -3 13 -12 10
-19 -3 -7 -1 -16 5 -19 16 -10 24 27 8 39 -20 15 -12 46 11 46 18 0 36 -42 25
-60 -4 -6 1 -10 9 -10 9 0 16 -4 16 -10 0 -5 5 -10 10 -10 6 0 8 10 5 23 -3
12 0 37 8 55 l13 33 11 -36 c6 -19 7 -35 2 -35 -5 0 -9 5 -9 10 0 6 -4 10 -10
10 -16 0 -6 -24 13 -33 23 -9 40 1 33 19 -3 8 -1 14 4 14 6 0 10 11 10 24 0
14 4 28 10 31 15 9 12 25 -5 25 -11 0 -15 -11 -15 -36 0 -21 -4 -33 -10 -29
-6 3 -10 24 -10 47 0 36 2 40 22 35 13 -4 26 0 33 10 7 9 17 13 23 9 17 -10
15 -24 -5 -29 -14 -4 -12 -5 5 -6 12 0 22 -6 22 -12 0 -6 -9 -8 -23 -3 -12 3
-19 3 -15 -1 4 -5 0 -14 -10 -21 -15 -12 -14 -13 16 -14 22 0 32 5 32 15 0 18
26 20 33 3 3 -9 8 -10 15 -3 6 6 6 18 2 30 -7 17 -9 17 -9 3 -2 -30 -28 -9
-29 22 0 19 5 31 16 34 20 6 49 3 58 -6 8 -8 34 1 34 12 0 5 -20 12 -45 16
-25 3 -45 10 -45 14 0 5 10 6 21 3 21 -6 21 -5 4 21 -16 24 -16 26 -1 26 10 0
15 4 11 9 -3 5 -1 12 5 16 5 3 10 3 10 -2 0 -9 57 -43 72 -43 6 0 16 7 23 17
11 15 14 14 33 -5 28 -28 35 -28 30 2 -4 19 -1 22 14 18 10 -2 15 -9 11 -15
-4 -6 -1 -7 6 -3 7 5 9 15 6 25 -4 9 -8 23 -10 31 -3 16 -5 16 -47 6 -16 -4
-28 -2 -28 3 0 15 20 24 52 23 15 0 26 4 23 9 -4 5 -2 9 4 9 14 0 23 -18 11
-22 -11 -4 -1 -48 11 -48 5 0 9 7 9 15 0 8 12 18 28 21 15 4 31 12 35 18 5 6
5 0 1 -14 -6 -22 -5 -23 10 -11 14 11 16 11 16 -2 0 -9 -8 -18 -19 -22 -17 -5
-18 -11 -9 -48 5 -23 17 -49 28 -59 12 -11 16 -25 13 -39 -4 -12 0 -25 8 -30
11 -7 9 -12 -9 -25 -16 -11 -22 -23 -19 -36 4 -12 -2 -29 -14 -41 -10 -11 -19
-17 -20 -11 0 5 -5 -2 -10 -15 -8 -19 -6 -27 6 -33 9 -5 16 -24 16 -46 2 -30
3 -32 6 -9 2 15 9 27 14 27 5 0 9 20 9 44 0 25 5 48 10 51 6 3 7 17 4 31 -7
29 6 31 30 5 10 -11 24 -17 32 -14 12 4 11 8 -3 18 -30 22 -5 30 29 10 29 -17
31 -17 25 -1 -4 10 -7 20 -7 22 0 2 -11 4 -25 4 -18 0 -23 4 -19 15 4 8 1 15
-5 15 -6 0 -14 -12 -18 -27 l-6 -28 -8 29 c-5 17 -7 32 -5 34 3 2 26 4 53 5
28 1 46 6 43 12 -3 6 -9 9 -13 7 -5 -1 -6 2 -2 8 3 5 13 10 21 10 8 0 17 7 20
15 4 8 13 15 21 15 8 0 11 -5 8 -10 -4 -6 -1 -18 6 -26 15 -18 13 -20 -31 -31
-37 -10 -47 -35 -16 -41 12 -3 16 0 11 8 -6 9 -2 9 14 1 11 -7 21 -16 21 -20
0 -5 14 -8 30 -7 31 2 41 -19 20 -40 -19 -19 18 -38 65 -35 24 1 46 -2 50 -8
3 -7 -2 -11 -14 -11 -11 0 -23 -4 -26 -10 -10 -16 41 -11 55 5 13 16 7 30 -13
30 -7 0 -13 6 -13 13 -1 6 -2 13 -3 15 -6 7 -7 66 -2 62 4 -2 7 4 6 13 -2 32
-65 82 -65 52 0 -15 -40 -32 -58 -25 -15 6 -14 8 6 16 17 6 22 14 17 28 -8 27
15 38 32 15 14 -19 14 -19 28 0 12 16 19 18 40 8 30 -14 34 -36 5 -27 -11 3
-20 2 -20 -4 0 -5 9 -13 20 -16 11 -4 20 -16 21 -28 1 -15 4 -11 11 13 7 24 6
40 -1 52 -8 14 -8 16 3 12 8 -3 17 -1 21 5 3 6 -1 14 -9 17 -20 8 -21 24 -2
24 9 0 13 10 12 30 -1 34 12 43 27 18 8 -13 7 -21 -4 -35 -11 -13 -14 -32 -11
-65 5 -53 12 -57 65 -32 25 12 33 21 30 35 -4 13 2 22 21 29 14 5 26 14 26 20
0 6 5 8 10 5 6 -4 8 -16 4 -28 -4 -15 -3 -19 4 -12 5 6 12 19 14 30 2 14 12
21 33 23 17 1 25 -1 19 -5 -6 -4 -13 -16 -17 -26 -4 -10 -11 -16 -17 -12 -5 3
-13 -9 -18 -27 -7 -29 -12 -32 -45 -32 -38 0 -41 -3 -31 -30 4 -12 11 -13 32
-5 22 9 30 7 43 -10 14 -17 24 -20 50 -14 23 4 30 3 25 -5 -4 -7 -1 -12 7 -12
10 0 13 8 9 25 -6 34 25 34 38 1 5 -13 14 -27 19 -31 6 -3 11 -17 11 -30 0
-18 7 -26 26 -31 18 -5 22 -10 15 -17 -17 -17 -13 -45 9 -57 23 -13 27 0 8 30
-16 26 0 40 18 16 12 -17 14 -17 14 -4 0 9 9 20 21 23 17 6 18 9 8 22 -11 13
-14 12 -21 -6 -7 -21 -9 -21 -37 -6 -30 15 -32 31 -8 63 6 8 6 12 -1 12 -6 0
-12 -5 -14 -12 -3 -7 -10 -8 -17 -4 -22 14 9 25 56 21 25 -3 43 -1 43 5 0 6
-7 10 -15 10 -20 0 -19 10 3 27 15 13 14 14 -13 9 -20 -4 -25 -3 -15 3 8 5 31
12 50 16 l35 7 -19 -21 c-20 -22 -10 -33 28 -28 28 3 31 -21 4 -26 -13 -2 -7
-3 12 0 19 2 43 4 53 5 12 2 17 11 17 34 0 29 14 44 39 44 5 0 7 -18 5 -39 -2
-29 3 -44 17 -57 18 -16 19 -16 19 0 0 9 -4 15 -9 11 -6 -3 -9 11 -8 34 1 39
17 36 17 -2 0 -11 5 -17 13 -14 6 2 11 10 9 16 -1 6 5 14 13 17 8 3 13 10 10
15 -3 4 -12 6 -20 3 -17 -7 -45 18 -45 40 0 9 -7 16 -15 16 -8 0 -15 -5 -15
-12 0 -6 -2 -9 -5 -6 -3 3 -3 12 1 21 4 11 17 16 41 15 30 -1 34 -4 29 -23 -5
-19 -2 -22 19 -22 29 0 30 3 10 23 -8 9 -15 20 -15 25 0 5 7 9 15 9 8 0 15 -7
15 -15 0 -8 3 -14 8 -14 22 4 42 -2 37 -11 -3 -5 -13 -6 -23 -3 -14 6 -15 4
-4 -9 10 -13 17 -14 37 -4 22 10 23 12 7 30 -9 10 -26 22 -37 26 -17 6 -13 9
22 19 30 8 43 17 46 34 3 14 4 12 2 -6 -1 -15 2 -30 7 -33 5 -3 6 -10 2 -15
-4 -6 -11 -6 -20 2 -8 6 -18 9 -22 5 -4 -4 1 -13 11 -20 9 -7 17 -19 17 -26 0
-7 7 -10 16 -6 9 3 20 6 25 6 5 0 9 9 9 20 0 22 15 27 26 9 4 -6 -10 -26 -31
-45 -21 -19 -36 -37 -32 -40 3 -3 18 6 34 20 15 14 34 24 41 21 7 -3 12 5 12
20 0 14 5 25 10 25 6 0 10 -14 10 -31 0 -17 4 -28 10 -24 6 3 10 19 10 35 0
21 4 28 14 24 9 -3 13 3 13 18 1 69 1 69 36 63 42 -7 66 7 48 29 -8 9 -21 16
-30 16 -14 0 -48 38 -39 44 2 1 12 8 22 16 18 14 19 14 8 -7 -8 -14 -9 -24 -2
-28 13 -8 32 4 25 15 -3 4 2 13 10 20 12 10 18 10 30 0 8 -7 15 -18 15 -24 0
-6 -5 -4 -10 4 -8 13 -11 13 -25 0 -13 -14 -14 -18 0 -35 11 -15 17 -17 23 -8
13 20 69 25 76 8 3 -8 12 -15 20 -15 18 0 30 30 17 43 -5 5 -7 15 -4 22 3 10
-2 12 -16 8 -24 -6 -38 -23 -20 -23 7 0 10 -3 7 -6 -10 -9 -68 26 -68 41 0 8
5 15 10 15 6 0 10 -4 10 -9 0 -17 34 -22 46 -6 13 17 44 10 44 -11 0 -7 10
-20 22 -28 18 -13 19 -16 5 -16 -10 0 -17 -8 -17 -20 0 -22 0 -22 -48 -26 -17
-1 -30 1 -27 5 2 5 -9 8 -25 9 -35 1 -34 2 -15 -34 13 -26 13 -29 0 -32 -11
-3 -14 -10 -10 -23 5 -14 2 -19 -10 -19 -12 0 -15 5 -11 16 11 28 -11 44 -40
30 -19 -8 -24 -17 -21 -34 3 -17 -1 -26 -16 -31 -14 -5 -17 -10 -9 -15 21 -12
13 -28 -10 -21 -17 6 -20 4 -15 -10 4 -9 7 -18 7 -21 0 -2 8 -1 18 2 10 4 13
3 6 -3 -14 -11 -26 -71 -15 -78 5 -3 11 0 13 7 3 7 9 8 18 3 21 -13 -23 -26
-62 -18 l-31 6 24 20 24 19 -25 -3 c-17 -3 -25 1 -25 11 0 9 -7 23 -15 31 -14
15 -17 14 -37 -8 -13 -13 -23 -28 -23 -33 0 -12 34 -22 54 -14 11 4 16 1 16
-10 0 -8 -12 -19 -26 -22 -16 -4 -22 -10 -16 -16 6 -6 18 -6 32 2 20 11 25 9
40 -10 16 -21 18 -22 27 -5 6 10 15 15 22 11 16 -10 14 -26 -4 -26 -8 0 -15
-4 -15 -10 0 -6 8 -6 23 0 12 6 30 13 40 16 13 5 15 10 7 19 -8 9 -8 15 0 20
5 3 10 17 10 30 0 13 6 25 13 28 6 2 5 3 -4 2 -17 -2 -45 33 -34 43 3 4 10 0
15 -8 7 -11 10 -11 10 -2 0 10 5 10 20 2 11 -6 20 -7 19 -3 -1 4 -1 15 0 23 1
12 4 12 12 -2 5 -10 17 -18 24 -18 8 0 15 -5 15 -11 0 -5 -5 -7 -11 -3 -7 4
-10 -1 -7 -12 4 -22 19 -22 32 -1 12 18 -31 78 -50 70 -18 -7 -18 23 -1 34 8
4 16 16 20 26 4 10 17 17 33 17 15 0 24 -3 21 -7 -4 -3 -2 -13 5 -20 9 -11 9
-17 -3 -24 -20 -12 -26 -11 -33 6 -3 8 0 15 7 15 7 0 6 4 -3 10 -24 15 -31
-21 -9 -42 10 -10 22 -18 27 -18 15 0 44 -38 38 -49 -4 -5 -2 -12 4 -16 5 -3
10 -1 10 4 0 6 8 11 18 12 15 0 15 1 -2 8 -15 6 -17 9 -6 16 8 5 17 2 25 -8 7
-10 17 -17 23 -17 6 0 13 -9 17 -19 3 -10 15 -21 25 -24 22 -6 26 3 9 20 -8 8
-8 13 1 18 6 4 19 -3 29 -14 17 -20 19 -20 35 -3 20 23 20 32 2 32 -15 0 -42
28 -34 35 2 3 19 8 36 11 27 5 33 3 40 -16 l8 -23 33 32 c17 17 37 31 44 31 7
0 6 4 -3 10 -13 9 -13 10 1 10 12 0 15 -10 14 -43 -2 -40 -15 -73 -43 -108
-11 -14 -10 -18 4 -23 26 -10 46 12 33 36 -8 15 -8 19 0 14 6 -4 11 0 11 8 0
9 6 16 13 16 8 0 7 4 -3 10 -13 8 -13 10 1 10 9 0 22 -7 29 -15 11 -13 15 -10
30 17 22 40 16 54 -11 29 -20 -19 -59 -18 -59 1 0 5 9 6 21 3 18 -6 20 -4 14
15 -6 17 -4 21 6 15 8 -5 6 1 -3 12 -10 11 -18 24 -18 30 0 17 -27 36 -35 23
-3 -5 -1 -10 4 -10 6 0 11 -4 11 -9 0 -10 -26 -9 -36 2 -11 10 25 57 44 57 16
1 16 1 0 14 -23 17 -23 21 0 23 9 1 26 3 36 5 16 2 22 -5 29 -34 5 -21 13 -38
17 -38 16 0 18 28 4 49 -15 21 -9 26 19 15 15 -5 12 -50 -4 -60 -17 -10 -9
-26 11 -21 11 3 20 0 20 -5 0 -7 -15 -9 -40 -5 -29 4 -43 1 -52 -11 -11 -13
-10 -15 5 -9 9 3 17 2 17 -4 0 -5 9 -19 20 -31 19 -20 20 -21 26 -2 11 30 44
69 44 52 0 -8 -6 -20 -12 -27 -10 -11 -10 -14 0 -18 6 -3 12 -11 12 -18 0 -7
7 -15 15 -19 8 -3 12 -11 10 -18 -3 -7 11 -24 30 -37 19 -13 35 -28 35 -33 0
-5 4 -6 10 -3 6 3 10 0 10 -9 0 -8 -6 -17 -13 -19 -6 -3 -2 -6 11 -6 12 -1 25
5 28 13 5 12 11 13 30 4 31 -14 31 -28 0 -28 -18 0 -25 -7 -29 -29 -3 -16 -14
-31 -23 -35 -24 -9 -28 -1 -8 18 21 22 12 31 -15 14 -29 -18 -33 -36 -10 -43
25 -8 69 19 70 43 0 14 2 14 8 -3 8 -19 8 -19 15 3 4 12 12 22 17 22 15 0 10
37 -6 44 -19 7 -20 36 -1 36 8 0 17 -7 20 -16 3 -8 10 -13 15 -10 5 4 11 1 13
-6 2 -6 10 -8 16 -4 16 10 15 27 -1 20 -7 -2 -22 4 -33 14 -11 11 -36 22 -55
26 -41 7 -62 46 -47 86 6 16 5 26 -1 28 -6 2 -11 8 -11 14 0 5 9 6 20 3 23 -7
28 13 8 33 -9 9 -9 12 3 12 26 0 59 -12 59 -22 0 -5 -4 -6 -10 -3 -6 3 -7 -1
-4 -9 4 -11 0 -16 -10 -16 -9 0 -16 -5 -16 -11 0 -6 9 -8 22 -4 16 6 20 4 15
-8 -7 -19 16 -29 33 -14 7 7 6 0 -3 -18 -14 -29 -57 -46 -57 -24 0 6 5 7 12 3
8 -5 9 -2 5 10 -4 10 -7 19 -7 20 0 2 -11 1 -25 -2 -23 -4 -33 -26 -10 -22 5
1 12 -6 15 -16 4 -9 19 -18 34 -20 22 -2 30 3 40 26 11 28 13 28 29 13 13 -13
19 -14 31 -4 8 7 25 9 40 5 16 -4 26 -2 26 5 0 6 -10 12 -22 12 -91 5 -84 2
-92 44 -4 20 -4 24 2 11 8 -17 9 -17 25 7 9 15 17 32 17 39 0 7 9 19 21 26 13
9 19 20 16 32 -6 23 29 38 47 20 8 -8 7 -14 -6 -21 -19 -11 -24 -44 -8 -54 6
-3 10 -11 10 -16 0 -6 -4 -7 -10 -4 -11 7 -13 -9 -4 -42 4 -13 11 -23 16 -23
6 0 8 9 5 21 -5 17 -2 20 14 16 23 -6 23 -6 0 36 -16 28 -16 36 -5 51 12 17
13 17 19 -7 4 -14 4 -30 1 -36 -3 -5 1 -16 10 -25 8 -9 13 -20 10 -25 -3 -5 3
-7 14 -4 18 5 19 8 7 22 -19 21 -31 61 -18 61 5 0 11 -10 13 -22 2 -12 9 -23
16 -24 7 -1 8 0 3 2 -13 7 3 57 20 62 11 3 11 2 1 -6 -9 -6 -11 -21 -6 -49 4
-30 2 -44 -11 -56 -9 -9 -12 -17 -6 -17 6 0 14 0 19 -1 4 0 10 10 13 23 l6 23
10 -25 c9 -22 7 -26 -19 -39 -16 -8 -25 -17 -20 -20 5 -3 9 -13 10 -21 0 -8 4
-26 8 -40 4 -14 3 -22 -1 -18 -11 10 -47 -11 -39 -23 4 -7 10 -7 16 -1 6 6 16
8 23 6 6 -3 17 2 24 9 9 12 8 18 -4 30 -21 21 -19 27 8 28 22 0 22 0 -2 10
l-24 9 21 23 c14 14 19 30 16 44 -3 11 -1 24 5 27 6 4 11 2 11 -3 0 -6 5 -11
11 -11 8 0 8 4 -1 15 -17 20 -3 36 26 29 14 -4 24 -2 24 5 0 6 -10 11 -21 11
-17 0 -19 3 -10 14 7 9 8 17 2 20 -5 3 -12 0 -14 -6 -4 -9 -6 -8 -6 2 -1 9 -7
22 -13 28 -7 7 -13 20 -13 30 0 12 -8 17 -28 17 -22 -1 -27 3 -24 17 4 13 -1
18 -16 19 -15 0 -17 2 -7 6 8 3 19 12 23 19 12 21 49 18 45 -3 -2 -10 -7 -21
-12 -24 -4 -4 -3 -10 3 -13 6 -4 11 -2 11 3 0 6 6 11 14 11 8 0 17 6 20 13 3
6 2 -8 -1 -32 -4 -32 -3 -42 5 -37 7 4 12 1 12 -9 0 -31 30 -75 51 -75 13 0
18 -4 13 -12 -4 -7 -3 -8 4 -4 19 11 14 26 -10 35 l-22 8 21 11 c18 10 22 8
26 -9 3 -12 10 -18 16 -14 19 11 12 35 -11 45 -13 5 -16 9 -8 9 37 1 61 -47
35 -72 -19 -20 -19 -33 0 -41 16 -6 21 -36 5 -36 -5 0 -13 7 -18 16 -5 9 -15
14 -21 10 -8 -5 -5 -15 11 -32 23 -23 45 -33 33 -14 -3 6 0 10 7 10 28 0 36
20 21 51 -12 25 -13 32 -1 46 10 13 10 17 1 20 -7 3 -13 12 -13 20 0 15 2 15
17 0 25 -22 25 -22 52 -8 13 8 19 16 13 20 -6 4 -5 11 4 19 12 11 14 9 14 -12
0 -14 5 -28 10 -31 6 -4 10 7 10 25 0 19 4 29 10 25 6 -4 8 -15 5 -26 -5 -15
-1 -19 15 -19 12 0 18 -4 15 -10 -3 -5 -15 -10 -26 -10 -10 0 -19 -5 -19 -11
0 -6 7 -9 15 -5 9 3 15 0 15 -9 0 -8 5 -15 12 -15 6 0 9 3 5 6 -10 11 22 64
39 64 14 0 14 -3 4 -15 -7 -9 -10 -19 -6 -23 9 -8 36 26 36 44 0 7 -8 10 -21
7 -19 -5 -20 -4 -7 17 10 18 10 24 1 27 -7 3 -13 9 -13 14 0 12 37 49 49 49 5
0 11 8 14 18 4 15 5 15 12 -3 14 -31 38 -55 57 -55 21 0 35 40 17 51 -7 4 -10
12 -5 16 5 4 11 2 13 -4 3 -7 12 -13 20 -13 10 0 13 -6 9 -15 -3 -9 1 -18 9
-21 23 -9 18 -34 -6 -34 -14 0 -19 -5 -16 -13 3 -8 1 -20 -4 -28 -7 -12 -9
-12 -10 1 -1 8 -1 18 0 23 0 4 -6 7 -15 7 -8 0 -12 -4 -9 -10 3 -5 2 -10 -2
-10 -5 0 -13 10 -18 23 -7 15 -18 21 -33 20 -22 -3 -30 11 -12 20 6 3 5 4 -2
3 -8 -2 -14 -20 -15 -47 -2 -40 -1 -42 8 -16 11 29 39 37 39 12 0 -8 -4 -15
-10 -15 -5 0 -10 -7 -10 -15 0 -17 31 -20 47 -4 8 8 13 7 19 -2 4 -7 3 -14 -4
-17 -22 -7 -14 -52 11 -61 26 -10 50 -3 41 11 -10 15 18 29 33 16 10 -8 13 -5
13 10 0 12 -4 23 -10 27 -16 10 -49 -18 -53 -45 -3 -21 -4 -22 -11 -7 -6 12 0
28 18 51 18 24 22 36 13 39 -8 4 -7 6 4 6 8 1 21 -5 27 -11 10 -10 15 -10 22
2 5 8 13 11 17 6 4 -4 -1 -15 -12 -23 -20 -16 -20 -16 0 -9 11 4 24 8 30 9 5
1 18 12 28 25 18 22 18 24 2 42 -12 13 -14 23 -6 37 5 10 13 27 17 38 6 16 8
12 14 -20 4 -22 6 -46 3 -55 -3 -9 3 -6 15 7 14 16 22 19 31 10 7 -7 11 -7 11
0 0 5 11 8 24 6 13 -3 27 0 30 6 7 11 -5 15 -36 12 -10 -1 -18 3 -18 8 0 6 5
11 11 11 6 0 9 7 5 15 -3 9 0 15 8 15 18 0 34 20 38 50 6 38 24 65 33 50 4 -7
3 -15 -2 -19 -5 -3 -10 -22 -11 -41 -2 -31 0 -33 12 -17 15 19 26 22 26 7 0
-5 -12 -16 -27 -24 -20 -11 -23 -15 -10 -16 10 0 17 -8 17 -20 0 -20 36 -60
54 -60 7 0 8 3 1 8 -5 4 -16 17 -23 30 -10 18 -10 22 3 22 8 0 15 -5 15 -11 0
-5 5 -7 10 -4 17 11 11 35 -9 35 -23 0 -36 16 -21 25 5 3 10 0 10 -7 1 -9 5
-8 14 4 11 15 14 13 25 -18 7 -18 9 -39 5 -46 -12 -20 -12 -52 0 -60 6 -4 7
-10 3 -15 -5 -4 -12 -1 -17 7 -5 8 -12 12 -15 8 -6 -6 29 -48 40 -48 3 0 5 7
5 15 0 9 7 18 15 21 8 4 15 15 15 25 0 10 5 19 10 19 6 0 10 5 10 10 0 19 -27
10 -37 -12 -9 -21 -10 -20 -9 9 1 25 6 33 26 38 16 4 28 1 36 -9 18 -25 23
-19 20 20 -1 19 2 38 7 41 6 3 7 1 3 -5 -4 -7 -2 -12 4 -12 7 0 9 -17 5 -54
l-7 -53 33 1 c20 1 44 11 61 26 25 23 27 29 18 60 -12 43 -13 40 5 40 14 0 20
-24 15 -59 -1 -8 4 -17 11 -21 15 -10 3 -30 -18 -30 -9 0 -13 -6 -10 -14 3 -7
0 -19 -6 -26 -10 -10 -8 -12 6 -7 10 4 16 3 12 -2 -3 -5 -2 -16 1 -25 6 -15 8
-15 21 1 8 10 11 12 7 4 -5 -9 -3 -12 4 -7 7 4 12 13 12 19 0 7 10 18 22 26
19 12 23 11 33 -3 11 -14 13 -12 18 14 5 21 12 30 26 30 31 0 35 19 6 30 -14
5 -29 9 -33 9 -22 -4 -42 2 -37 11 9 14 -19 12 -33 -2 -9 -9 -12 -5 -12 20 0
23 -7 36 -25 48 -32 21 -32 36 2 71 20 21 24 23 18 8 -15 -41 -16 -50 -1 -70
14 -17 17 -18 26 -5 6 10 10 11 10 3 0 -7 9 -17 21 -24 17 -9 24 -7 40 10 10
11 19 24 19 29 0 5 12 10 26 10 20 0 24 -4 18 -17 -4 -9 -8 -26 -8 -38 -1 -11
-4 -19 -7 -17 -4 2 -9 -5 -12 -17 -4 -16 -2 -19 14 -14 14 5 19 2 19 -13 0
-11 6 -23 13 -26 6 -3 3 -4 -8 -1 -18 4 -20 0 -20 -38 0 -23 -4 -58 -8 -77 -4
-19 -3 -27 1 -17 4 10 10 17 12 16 3 -2 14 2 25 9 l20 11 -20 1 c-19 1 -19 2
4 20 20 18 18 24 -9 22 -3 0 -6 8 -6 19 0 22 3 23 39 7 25 -12 36 -28 19 -28
-4 0 -8 -9 -8 -20 0 -11 4 -20 8 -20 4 0 8 8 8 18 0 9 4 23 9 31 6 9 8 -5 8
-38 -1 -52 -11 -62 -36 -38 -11 10 -14 10 -18 0 -3 -7 -11 -13 -19 -13 -9 0
-12 -5 -9 -11 4 -6 13 -8 21 -5 8 3 14 1 14 -5 0 -6 7 -6 20 1 19 10 25 4 21
-22 0 -5 4 -8 10 -8 6 0 9 9 6 20 -4 17 0 22 24 27 30 6 31 18 1 18 -9 0 -18
7 -20 16 -2 11 4 15 20 14 22 -2 38 10 38 28 0 5 -10 5 -21 2 -19 -6 -21 -4
-16 16 4 13 7 27 7 31 0 3 7 8 15 10 10 2 12 7 5 17 -7 12 -11 10 -21 -12 -12
-26 -39 -38 -39 -16 0 5 -5 7 -10 4 -6 -3 -10 -1 -10 4 0 6 8 11 19 11 18 0
35 31 32 58 -1 6 5 12 12 12 22 0 31 33 12 46 -9 7 -15 16 -14 20 1 5 -1 16
-4 24 -3 8 -7 23 -9 33 -3 16 -5 16 -22 4 -18 -13 -18 -15 -2 -39 16 -25 16
-26 -11 -48 l-28 -21 25 -19 c14 -10 21 -22 17 -27 -5 -4 -16 3 -26 16 -15 20
-21 22 -39 12 -31 -16 -35 -14 -27 17 8 33 26 52 32 35 6 -17 23 -16 23 1 0 8
-14 19 -31 25 -38 13 -33 35 9 39 28 3 32 7 32 31 0 33 35 70 51 54 7 -7 3
-12 -15 -17 -29 -7 -34 -21 -11 -30 8 -3 15 -2 15 3 0 14 37 20 49 8 6 -6 14
-8 18 -4 3 4 -3 16 -15 27 -12 12 -22 25 -22 30 0 6 -5 10 -11 10 -14 0 -62
50 -55 57 11 11 43 -9 60 -38 14 -24 21 -28 27 -18 6 10 8 7 7 -10 -2 -13 3
-26 10 -28 7 -3 12 5 12 21 0 16 6 26 15 26 8 0 15 7 15 16 0 11 5 14 17 10 9
-4 20 -1 24 6 6 10 12 8 23 -7 18 -23 20 -45 6 -45 -5 0 -10 9 -10 20 0 11 -4
20 -9 20 -16 0 -25 -23 -24 -55 2 -27 1 -28 -5 -6 -8 25 -32 42 -32 22 0 -6 4
-11 10 -11 5 0 7 -6 4 -14 -3 -8 -1 -17 5 -21 6 -3 11 -15 11 -26 0 -16 -5
-19 -20 -14 -15 5 -20 2 -20 -12 0 -20 53 -49 70 -38 13 8 13 35 0 35 -5 0
-10 -4 -10 -10 0 -5 -4 -10 -10 -10 -5 0 -10 7 -10 15 0 8 5 15 11 15 6 0 9 6
6 13 -3 8 7 19 25 26 18 8 27 19 24 27 -3 7 -1 16 5 19 5 4 6 11 3 17 -4 6 2
8 17 4 13 -3 19 -3 12 0 -7 3 -9 12 -6 20 5 13 7 13 14 2 6 -9 9 -7 9 9 0 24
-29 38 -59 28 -11 -3 -26 1 -36 11 -12 12 -19 14 -28 5 -18 -18 -36 -13 -30 9
4 16 0 20 -18 20 -22 1 -23 2 -7 14 10 7 15 16 11 19 -10 10 3 8 32 -5 27 -12
32 -24 13 -31 -7 -3 5 -6 27 -6 59 -1 70 9 52 45 -11 22 -12 35 -5 48 7 13 7
21 -2 26 -7 4 -9 13 -5 20 6 9 9 9 15 -1 7 -10 11 -10 24 0 14 12 16 10 16
-14 0 -27 1 -28 20 -10 16 14 22 15 35 5 12 -10 17 -9 30 3 8 9 15 19 15 24 0
5 9 9 20 10 32 3 21 -27 -14 -41 -15 -5 -16 -10 -8 -18 9 -9 18 -5 36 15 30
32 40 34 31 7 -5 -15 -3 -18 9 -14 12 5 15 2 10 -10 -3 -9 -1 -16 5 -16 6 0
13 11 17 25 6 26 28 33 40 13 4 -6 3 -8 -3 -5 -6 4 -16 0 -23 -7 -9 -12 -7
-17 8 -25 20 -11 22 -31 7 -65 -6 -14 -3 -24 13 -37 14 -10 20 -23 16 -33 -8
-22 -21 -20 -29 4 -4 11 -19 27 -35 35 -38 20 -43 19 -30 -4 13 -25 13 -41 0
-41 -12 0 -34 49 -31 69 2 8 -2 10 -11 5 -7 -5 -21 -7 -30 -6 -10 2 -26 -1
-35 -7 -15 -9 -14 -11 12 -12 17 -1 33 -1 38 0 17 3 4 -19 -33 -58 -28 -28
-47 -40 -58 -37 -13 4 -18 0 -18 -14 0 -13 5 -19 14 -15 7 3 20 5 28 5 8 0 19
11 23 23 5 13 24 30 41 37 29 12 33 11 42 -4 7 -13 13 -14 23 -6 8 7 16 7 19
1 7 -11 76 -10 76 1 0 4 4 8 9 8 5 0 7 -9 4 -20 -5 -20 -33 -29 -33 -10 0 6
-5 10 -10 10 -17 0 12 -38 34 -44 26 -7 40 3 27 18 -7 9 -7 16 1 24 19 19 25
14 25 -17 0 -21 -7 -33 -24 -42 -12 -7 -23 -16 -23 -21 0 -12 63 1 71 14 3 5
12 2 19 -7 11 -13 8 -15 -24 -15 -30 0 -36 -3 -37 -22 -1 -28 -5 -47 -14 -70
-4 -11 -3 -18 4 -18 6 0 10 3 9 8 -2 12 21 62 29 62 13 0 35 -17 34 -26 0 -5
16 -14 35 -21 19 -7 32 -8 29 -3 -4 6 -13 10 -21 10 -20 0 -18 14 6 35 19 18
20 17 20 -5 0 -19 4 -21 26 -16 15 4 33 14 42 23 14 14 14 16 -1 25 -10 5 -15
13 -12 17 2 5 -2 14 -9 20 -10 8 -16 9 -21 1 -13 -21 -24 -9 -13 15 6 14 15
25 20 25 18 0 7 28 -14 33 -26 7 -38 -1 -19 -13 8 -4 11 -15 8 -24 -11 -28
-23 -17 -22 19 1 30 -2 36 -24 41 -47 10 -58 16 -42 21 7 3 22 14 32 24 23 23
68 27 50 5 -16 -19 -3 -46 23 -48 80 -6 85 -8 59 -18 -13 -5 -23 -16 -23 -25
0 -8 -4 -15 -10 -15 -5 0 -10 -7 -10 -15 0 -17 16 -20 25 -5 3 6 13 10 21 10
19 0 35 -41 22 -57 -14 -18 0 -16 18 1 8 8 14 22 14 30 0 10 9 16 24 16 32 0
43 -39 18 -60 -10 -9 -21 -25 -24 -37 -5 -17 -2 -20 11 -15 14 5 14 4 2 -11
-17 -21 -31 -13 -31 19 0 13 -5 24 -11 24 -6 0 -9 -6 -6 -12 2 -7 -8 -18 -22
-25 -17 -7 -20 -12 -10 -12 9 -1 22 -8 29 -16 10 -12 9 -15 -8 -15 -11 0 -25
-7 -32 -15 -7 -8 -18 -15 -25 -15 -15 0 -25 -31 -25 -82 0 -27 -4 -38 -15 -38
-8 0 -15 -7 -15 -17 0 -15 2 -14 20 2 10 9 26 15 35 12 20 -8 19 3 -3 19 -16
13 -16 13 2 14 13 0 16 5 11 18 -17 41 -17 52 -1 52 9 0 16 -3 17 -7 0 -5 2
-30 5 -58 2 -27 8 -51 14 -53 15 -5 12 -32 -5 -38 -8 -4 -15 -13 -15 -21 0
-13 3 -13 15 -3 12 10 18 10 30 0 8 -6 19 -9 24 -6 5 4 12 2 16 -4 3 -5 12
-10 18 -10 9 0 8 3 -1 8 -7 5 -14 22 -15 38 -2 22 2 29 16 28 9 -1 17 5 17 13
0 23 28 -3 33 -30 4 -18 4 -18 6 5 0 15 -7 34 -16 44 -13 13 -14 19 -5 22 6 2
12 9 12 17 0 7 10 19 23 28 18 12 20 17 9 29 -11 11 -18 8 -40 -19 -17 -19
-38 -31 -53 -31 -13 0 -33 -2 -44 -4 -14 -2 -21 3 -23 20 -3 20 8 26 44 21 3
0 19 14 35 32 29 33 38 59 19 59 -5 0 -10 5 -10 11 0 5 8 9 18 8 9 -1 30 3 45
9 16 7 35 12 43 12 8 0 14 5 14 10 0 14 -23 13 -38 -2 -8 -8 -15 -8 -26 1 -11
9 -15 9 -18 -1 -3 -7 -7 -3 -10 10 -5 18 -3 20 11 13 22 -12 71 -2 71 15 0 17
-22 18 -37 3 -14 -14 -48 15 -38 32 4 5 0 16 -10 22 -12 10 -14 18 -7 36 11
30 24 14 28 -37 4 -42 4 -43 32 -35 17 4 21 10 16 26 -5 17 -3 19 16 14 16 -4
20 -2 16 9 -3 9 1 14 13 14 14 0 18 5 14 20 -4 14 0 20 11 20 18 0 22 -25 5
-35 -5 -4 -14 -18 -19 -31 -5 -13 -16 -24 -25 -24 -8 0 -15 -4 -15 -10 0 -5 5
-10 11 -10 6 0 9 -9 6 -20 -6 -25 -2 -25 25 0 16 14 18 20 7 20 -10 1 -9 4 4
11 12 7 16 17 11 31 -4 14 -2 18 5 14 6 -4 11 -12 11 -17 0 -14 26 -39 39 -39
6 0 11 -4 11 -9 0 -5 9 -13 21 -16 11 -4 25 -18 30 -32 10 -28 22 -23 34 15 4
13 2 22 -4 22 -6 0 -11 5 -11 11 0 7 9 9 21 6 19 -5 20 -4 5 12 -9 10 -13 21
-9 26 5 4 -4 5 -19 1 -16 -4 -28 -2 -28 3 0 6 -7 8 -15 5 -8 -4 -15 -1 -15 5
0 6 -4 11 -10 11 -5 0 -10 -7 -10 -15 0 -8 -5 -15 -11 -15 -6 0 -8 7 -5 16 3
9 6 20 6 25 0 15 32 10 52 -8 16 -14 22 -14 43 -3 13 7 22 17 18 23 -3 5 -9 4
-13 -3 -4 -7 -13 -9 -20 -5 -9 6 -9 9 1 16 7 4 10 12 5 16 -4 4 -13 1 -19 -7
-13 -16 -57 -15 -57 1 0 5 5 9 11 9 6 0 17 7 26 15 12 12 13 19 3 30 -9 11 -9
15 -1 15 6 0 11 -5 11 -11 0 -5 4 -7 10 -4 5 3 20 -1 32 -9 12 -9 17 -16 10
-16 -19 0 -14 -14 9 -29 20 -12 21 -11 16 8 -4 16 0 21 13 21 10 0 27 3 37 7
16 6 16 5 4 -10 -7 -9 -20 -17 -27 -17 -8 0 -14 -5 -14 -11 0 -7 9 -9 23 -5
12 3 25 6 30 6 4 0 7 6 7 13 0 7 9 20 19 29 17 14 21 15 32 2 16 -19 55 -18
63 2 4 9 13 14 22 10 9 -3 12 -2 9 5 -4 5 -16 7 -26 4 -17 -6 -19 -3 -16 20 5
37 35 59 56 42 29 -22 61 -37 81 -37 10 0 25 -10 31 -22 9 -19 9 -21 -2 -10
-21 19 -29 14 -29 -18 0 -32 9 -37 28 -18 9 9 16 7 32 -7 21 -19 60 -31 60
-19 0 4 -8 13 -17 20 -17 13 -17 13 0 14 9 0 17 3 17 6 0 4 -8 13 -17 21 -16
12 -14 12 10 2 30 -13 33 -19 16 -36 -8 -8 -6 -15 9 -24 11 -7 18 -19 15 -26
-3 -7 2 -13 11 -13 18 0 22 25 6 35 -15 9 -12 41 6 56 13 11 14 9 9 -14 -5
-20 -3 -28 9 -33 21 -8 20 -33 -1 -56 -21 -23 -11 -33 16 -17 22 15 41 5 24
-12 -6 -6 -9 -17 -7 -24 3 -7 -4 -15 -15 -18 -24 -6 -28 -35 -6 -43 8 -4 15
-13 15 -21 0 -8 4 -11 10 -8 6 4 5 13 -2 24 -13 22 -3 55 14 45 8 -5 9 -2 4
12 -5 14 -4 16 4 8 7 -7 8 -19 1 -37 -10 -25 -9 -25 25 -22 38 3 42 -2 17 -21
-10 -7 -15 -16 -11 -19 4 -4 14 0 24 9 15 16 18 15 40 -9 37 -40 28 -60 -16
-33 -15 10 -22 10 -32 0 -9 -9 -6 -12 16 -12 15 0 25 -4 21 -10 -3 -5 -15 -10
-26 -10 -10 0 -19 -5 -19 -11 0 -6 3 -9 8 -7 4 2 24 10 44 17 40 16 54 36 38
56 -6 7 -8 20 -4 28 4 12 -5 20 -32 32 -21 9 -44 13 -51 11 -7 -3 -13 1 -13
10 0 22 31 30 42 11 10 -18 48 -23 48 -7 0 6 -3 9 -7 9 -22 -4 -32 3 -27 16 3
8 11 13 16 12 6 -1 13 4 15 11 3 6 -2 12 -11 12 -9 0 -16 8 -16 17 0 14 -3 14
-12 5 -10 -10 -10 -14 0 -21 7 -4 10 -15 6 -25 -5 -12 -10 -14 -19 -6 -9 8
-15 8 -20 0 -11 -18 -25 -11 -25 13 0 28 -17 47 -36 40 -8 -3 -14 0 -14 6 0 7
6 14 13 17 8 3 12 16 9 34 -3 21 1 32 17 42 24 15 29 33 6 24 -17 -6 -20 11
-5 34 8 12 10 12 16 -3 5 -15 9 -15 22 -5 13 11 14 10 4 -9 -16 -30 -15 -33 9
-33 11 0 18 4 15 8 -2 4 0 14 5 22 7 11 9 3 7 -25 -2 -32 -6 -39 -21 -37 -16
3 -16 1 3 -18 12 -12 29 -19 38 -17 14 4 13 6 -5 12 -29 9 -18 28 12 21 18 -5
28 2 46 29 24 35 46 48 35 20 -5 -13 1 -30 22 -64 1 -3 13 6 26 18 15 14 26
19 31 12 8 -14 25 -14 25 -1 0 19 -24 37 -42 32 -10 -2 -18 -13 -18 -23 0 -20
-15 -26 -24 -10 -17 26 36 70 60 50 11 -9 17 -9 29 1 8 7 15 9 15 4 0 -4 5 -3
12 4 8 8 5 16 -13 31 -19 15 -21 22 -12 32 10 10 14 7 22 -14 10 -27 34 -34
58 -19 17 11 -31 62 -58 62 -13 0 -24 10 -31 31 -7 22 -14 27 -21 20 -17 -17
-31 -13 -17 4 7 9 21 13 30 10 11 -3 20 1 24 10 3 8 13 15 23 15 16 -1 16 -2
-2 -16 -27 -20 -30 -64 -5 -64 10 0 25 -2 32 -5 10 -4 13 4 13 28 -1 33 0 34
34 33 22 0 35 4 34 11 -1 6 7 13 18 16 15 4 19 2 15 -9 -8 -20 20 -29 39 -14
8 7 15 8 15 3 0 -6 10 -14 23 -20 l22 -10 -22 -7 c-23 -7 -23 -7 7 -32 16 -14
35 -22 41 -19 6 4 5 -1 -2 -13 -10 -16 -17 -18 -31 -11 -9 5 -15 16 -12 23 4
11 0 13 -15 9 -19 -5 -19 -7 -5 -29 13 -20 14 -29 3 -61 -7 -21 -14 -39 -15
-41 -1 -2 -13 0 -27 3 -17 5 -24 12 -20 21 7 19 -2 18 -22 -2 -12 -13 -19 -14
-28 -5 -13 13 -47 15 -47 2 0 -6 4 -13 10 -16 19 -11 -12 -45 -36 -39 -13 3
-32 3 -44 -1 -16 -5 -18 -10 -10 -20 8 -10 8 -15 -1 -20 -6 -4 -14 -2 -18 4
-9 14 -60 20 -60 6 0 -5 -8 -12 -18 -16 -10 -3 -18 -10 -18 -15 0 -5 -8 -20
-17 -33 l-16 -23 -5 28 -4 29 -2 -32 c0 -17 3 -33 9 -35 5 -1 11 -22 12 -46 1
-32 5 -42 15 -37 8 3 20 5 26 5 6 0 1 7 -11 16 -23 16 -31 49 -9 41 6 -2 11
-12 11 -21 -1 -9 4 -16 12 -16 21 0 17 18 -11 45 -15 16 -19 25 -11 25 8 0 16
7 20 15 3 8 13 15 22 15 13 0 14 -3 4 -15 -10 -12 -10 -15 1 -16 8 0 26 -2 42
-3 19 -1 32 5 43 22 20 31 11 40 -13 13 -20 -24 -45 -28 -37 -6 4 8 22 22 41
31 24 12 31 20 24 27 -6 6 -11 15 -11 19 0 13 38 9 44 -4 5 -10 7 -10 12 0 10
22 41 13 48 -14 8 -31 4 -36 -29 -40 -16 -2 -25 2 -25 12 0 8 -4 14 -10 14 -5
0 -10 -11 -10 -25 0 -22 3 -24 33 -19 60 11 60 11 54 59 -4 25 -2 47 3 50 6 3
10 -5 10 -19 0 -14 5 -26 11 -26 7 0 9 -10 5 -27 -5 -16 -3 -29 5 -34 18 -11
-7 -40 -28 -32 -11 4 -14 2 -11 -8 7 -20 38 -24 38 -5 0 21 16 20 24 0 4 -9 9
-14 13 -11 3 4 0 13 -7 22 -7 9 -10 19 -6 23 4 4 13 -1 20 -11 14 -18 46 -24
46 -7 0 6 -5 10 -11 10 -6 0 -17 7 -26 16 -9 8 -22 13 -29 10 -8 -3 -14 -1
-14 4 0 6 9 10 21 10 12 0 17 4 14 11 -4 6 -13 8 -21 5 -8 -3 -14 1 -14 8 0
18 50 30 63 17 8 -8 7 -11 -1 -11 -7 0 -12 -4 -12 -10 0 -5 7 -10 15 -10 9 0
12 -6 9 -15 -4 -8 -1 -15 5 -15 6 0 11 11 11 25 0 16 6 25 15 25 9 0 18 6 21
14 3 8 14 14 25 13 14 -1 17 -6 13 -22 -6 -17 -5 -18 9 -6 9 7 23 11 32 8 8
-4 17 -2 20 3 4 6 -5 10 -19 10 -17 0 -26 5 -26 16 0 13 -3 14 -14 5 -11 -9
-15 -9 -19 1 -4 10 -8 10 -16 -2 -10 -13 -12 -13 -21 0 -8 13 -11 12 -23 -4
-14 -18 -15 -18 -24 -1 -7 12 -13 14 -17 6 -4 -6 -17 -11 -29 -11 -16 0 -23 6
-24 22 -2 17 0 19 7 8 7 -11 13 -12 36 -1 22 10 29 10 35 -1 10 -15 12 -6 9
40 -1 22 3 32 13 32 8 0 17 7 21 15 3 8 12 15 21 15 8 0 15 5 15 11 0 8 5 8
15 -1 8 -7 12 -16 9 -21 -2 -5 8 -11 23 -15 15 -4 37 -13 48 -20 11 -8 27 -14
37 -14 22 0 23 -9 2 -38 -21 -30 -4 -28 18 2 16 21 16 28 4 51 -8 16 -17 22
-21 16 -12 -20 -38 -13 -32 9 3 11 1 20 -4 20 -5 0 -9 -4 -9 -10 0 -5 -5 -10
-11 -10 -5 0 -7 5 -3 11 4 8 0 9 -15 4 -15 -5 -21 -2 -21 9 0 9 5 16 10 16 6
0 10 8 10 19 0 11 9 21 21 24 12 3 18 10 15 15 -3 6 0 13 6 15 10 4 10 8 -2
16 -8 5 -18 7 -22 5 -4 -3 -8 0 -8 5 0 6 5 11 10 11 6 0 10 7 10 15 0 8 5 15
10 15 6 0 10 4 10 9 0 5 -16 1 -35 -7 -21 -10 -35 -23 -35 -34 0 -21 -4 -22
-30 -5 -17 10 -22 9 -30 -3 -18 -28 -12 -41 16 -34 19 5 25 4 20 -5 -4 -6 -1
-11 8 -11 11 0 16 -9 16 -26 0 -16 -5 -24 -12 -21 -7 2 -12 13 -11 23 1 10 0
13 -3 6 -3 -6 -11 -9 -17 -5 -7 4 -16 8 -22 8 -5 0 -11 25 -13 55 -1 30 1 51
5 45 9 -12 50 -12 75 -1 14 6 15 10 5 20 -19 18 -55 17 -60 -2 -2 -11 -7 -5
-13 17 -12 43 -37 60 -62 44 -11 -7 -24 -8 -34 -2 -19 11 -48 2 -48 -15 0 -8
-18 -12 -50 -12 -33 0 -50 4 -50 12 0 7 6 15 13 17 7 4 6 6 -4 6 -11 1 -19
-10 -22 -29 -4 -20 -12 -30 -24 -30 -17 1 -17 1 0 11 21 12 13 29 -14 29 -10
0 -19 4 -19 9 0 5 -45 9 -100 9 -57 0 -98 -4 -94 -9 3 -5 -4 -9 -15 -9 -23 0
-27 -10 -10 -27 7 -7 3 -10 -15 -10 -39 0 -41 26 -3 42 31 14 31 14 -38 14
-75 0 -117 -10 -97 -23 7 -4 12 -14 12 -22 0 -8 -4 -13 -9 -10 -5 4 -22 2 -38
-4 l-28 -10 23 19 c27 24 28 35 2 28 -11 -3 -20 -1 -20 3 0 5 10 10 23 12 12
3 -92 5 -230 6 -180 1 -253 -2 -253 -9 0 -8 -4 -8 -12 -1 -7 6 -62 11 -121 11
-85 1 -107 -1 -101 -11 6 -11 5 -11 -8 0 -16 13 -270 17 -265 4 1 -4 -2 -7 -8
-7 -5 0 -9 4 -7 8 1 5 -15 7 -35 5 -34 -3 -38 -6 -36 -28 2 -22 1 -23 -8 -7
-5 9 -8 21 -5 25 3 5 -8 9 -23 9 -20 0 -28 -4 -24 -14 3 -7 0 -13 -6 -13 -6 0
-11 7 -11 15 0 12 -16 15 -87 14 -64 0 -82 -3 -68 -10 16 -8 15 -8 -5 -2 -14
4 -186 9 -382 10 -279 2 -358 0 -358 -10 0 -8 -4 -7 -10 3 -9 13 -11 13 -20 0
-6 -10 -10 -11 -10 -3 0 17 -5186 19 -5207 2 -9 -9 -13 -9 -13 0 0 8 -49 11
-161 11 -104 0 -158 -3 -154 -10 3 -5 0 -18 -7 -29 -13 -18 -18 -21 -38 -21
-5 0 -14 -9 -20 -20 -8 -16 -8 -24 4 -35 8 -8 19 -15 25 -15 14 0 14 17 1 25
-5 3 -10 11 -10 18 0 6 7 2 15 -10 18 -26 10 -53 -17 -53 -18 0 -20 -5 -15
-35 6 -39 -6 -55 -22 -28 -9 15 -10 14 -11 -11 0 -39 21 -96 36 -96 7 0 12
-10 11 -22 0 -13 3 -35 6 -50 3 -15 1 -31 -5 -34 -6 -4 -5 -9 3 -15 24 -14 4
-19 -23 -5 -29 15 -38 12 -38 -15 0 -12 5 -16 15 -13 11 5 13 2 9 -10 -4 -10
-13 -15 -21 -12 -8 3 -17 6 -19 6 -9 0 -3 47 10 72 8 15 12 29 9 32 -9 8 -32
-26 -33 -47 0 -10 -5 -15 -11 -12 -5 4 -7 19 -4 34 5 22 1 29 -17 38 -45 22
-58 23 -58 7 0 -11 -5 -14 -16 -10 -12 4 -15 2 -11 -9 5 -10 -4 -16 -28 -21
-19 -3 -35 -10 -35 -15 0 -5 -13 -9 -30 -9 -16 0 -30 5 -30 10 0 6 -8 10 -18
10 -10 0 -24 6 -31 13 -11 10 -11 8 0 -10 16 -26 62 -48 84 -39 9 3 13 2 10
-4 -3 -6 -15 -10 -26 -10 -10 0 -28 -9 -38 -19 -15 -15 -21 -16 -24 -6 -3 7
-1 17 5 23 7 7 5 10 -8 8 -10 -2 -20 -8 -22 -14 -2 -8 -14 -9 -30 -5 -23 5
-25 4 -14 -9 10 -13 9 -18 -10 -30 -45 -29 -48 -30 -42 -14 9 24 -13 19 -30
-6 -10 -13 -12 -26 -7 -31 5 -5 7 -16 4 -23 -3 -9 3 -14 18 -15 l24 -1 -25 -7
c-14 -5 -34 -3 -45 2 -11 6 -21 8 -22 6 -1 -2 -12 4 -24 15 -18 15 -25 16 -45
6 -12 -7 -29 -10 -38 -7 -9 4 -21 -4 -30 -19 -15 -22 -15 -26 0 -49 16 -25 13
-55 -6 -55 -5 0 -9 8 -8 18 3 35 -2 52 -16 52 -8 0 -17 11 -20 25 -4 16 -11
22 -21 19 -8 -4 -17 1 -21 10 -3 9 -10 13 -16 10 -5 -3 -16 2 -24 12 -11 14
-17 15 -20 7 -3 -7 -12 -13 -20 -13 -8 0 -14 -7 -14 -15 0 -8 7 -15 15 -15 8
0 15 -4 15 -10 0 -5 -7 -10 -15 -10 -18 0 -20 -16 -2 -24 6 -3 2 -3 -10 0 -16
4 -23 1 -23 -10 0 -8 5 -18 10 -21 6 -3 10 -11 10 -17 0 -7 -4 -7 -13 1 -8 6
-17 7 -22 3 -4 -4 -5 6 -3 21 4 20 0 34 -13 46 -12 11 -15 21 -9 31 8 13 10
12 10 -2 0 -20 16 -32 30 -23 7 4 8 11 1 18 -10 13 -3 67 8 67 4 0 13 -6 20
-12 11 -10 14 -10 18 0 7 18 31 15 36 -5 4 -15 6 -14 12 5 5 15 13 21 22 17
11 -3 13 -1 10 10 -4 8 -2 17 3 20 6 4 10 -1 10 -9 0 -9 11 -23 25 -32 14 -9
25 -23 25 -30 0 -20 13 -17 28 6 10 17 10 20 -4 20 -9 0 -27 11 -39 24 l-23
24 22 5 c27 7 90 2 105 -8 7 -4 15 -4 19 0 4 4 1 10 -5 12 -15 5 -17 33 -3 33
5 0 13 -12 16 -26 5 -19 9 -22 15 -12 6 9 9 9 9 1 0 -6 -5 -15 -10 -18 -7 -4
-6 -14 2 -28 7 -12 11 -28 9 -35 -1 -9 5 -12 16 -10 11 2 17 11 15 21 -2 9 4
20 13 23 25 10 17 25 -10 18 -24 -6 -25 -4 -19 20 5 22 3 26 -14 26 -14 0 -24
10 -32 35 -6 19 -16 35 -21 35 -6 0 -7 -4 -4 -10 15 -24 -7 -27 -30 -4 -19 19
-23 31 -19 53 5 23 2 32 -14 40 -12 6 -27 11 -34 10 -7 0 -3 -5 10 -11 12 -6
22 -18 22 -26 0 -12 -4 -12 -20 3 -12 11 -31 20 -42 22 -12 2 -24 6 -27 10 -3
3 4 3 16 0 20 -4 22 -2 20 33 -1 25 -6 36 -15 33 -15 -6 -15 -16 0 -31 9 -9 7
-12 -10 -12 -11 0 -25 8 -31 18 -7 13 -13 14 -21 6 -8 -8 -9 -14 -1 -18 16
-10 14 -26 -3 -26 -11 0 -14 14 -14 56 0 33 -5 60 -12 67 -10 10 -12 8 -7 -5
4 -10 2 -18 -3 -18 -6 0 -10 -7 -10 -16 0 -8 -5 -12 -11 -8 -8 4 -8 9 0 17 18
18 12 28 -9 17 -12 -7 -17 -16 -13 -28 4 -13 3 -14 -6 -6 -8 8 -9 18 -2 37 9
22 8 27 -5 27 -9 0 -12 5 -8 12 5 8 2 9 -10 5 -10 -4 -20 -7 -22 -7 -2 0 -4
-4 -4 -10 0 -5 7 -10 15 -10 19 0 19 -7 0 -26 -24 -24 -34 -8 -23 36 9 33 14
39 29 35 23 -8 26 10 3 19 -24 9 -46 7 -39 -3 3 -5 -4 -16 -16 -24 -13 -10
-16 -17 -10 -22 6 -3 9 -18 6 -33 -2 -14 0 -29 6 -33 8 -5 8 -8 0 -13 -6 -4
-11 -2 -11 3 0 6 -5 11 -11 11 -6 0 -9 -10 -7 -22 2 -16 9 -22 23 -20 19 2 18
1 -2 -14 -13 -9 -23 -23 -23 -31 0 -10 -6 -13 -16 -9 -9 3 -18 6 -21 6 -2 0 3
7 11 16 17 16 21 34 9 34 -5 0 -16 -11 -25 -24 -15 -21 -15 -25 -3 -30 17 -6
21 -46 5 -46 -5 0 -15 8 -21 19 -8 11 -19 16 -32 13 -15 -4 -18 -11 -13 -33 3
-16 1 -29 -4 -29 -6 0 -10 4 -10 10 0 5 -21 18 -46 30 -36 15 -50 17 -60 9
-10 -8 -14 -8 -14 0 0 6 5 11 10 11 6 0 10 7 10 15 0 8 -4 15 -9 15 -5 0 -16
-7 -25 -15 -17 -17 -30 -20 -21 -5 3 6 -1 13 -9 16 -22 9 -10 23 14 17 14 -4
20 0 20 12 0 12 -5 15 -17 10 -10 -4 -26 -7 -35 -7 -10 0 -18 -6 -18 -14 0
-19 -17 -18 -28 2 -5 9 -21 17 -35 17 -28 2 -36 12 -15 20 8 2 9 8 4 13 -5 5
-11 4 -13 -3 -5 -14 -23 -18 -23 -5 0 4 4 12 8 19 10 16 55 5 48 -12 -6 -16
26 -14 37 3 10 15 0 52 -14 52 -13 0 -11 -18 3 -23 10 -3 10 -7 2 -17 -9 -9
-14 -5 -19 19 -4 17 -13 31 -21 31 -8 0 -14 7 -14 16 0 9 -9 18 -20 21 -16 4
-18 8 -9 19 15 19 4 30 -15 15 -11 -9 -21 -8 -47 8 -18 11 -36 16 -39 11 -3
-5 -16 -7 -28 -3 -23 5 -30 37 -12 48 5 3 10 -3 10 -14 0 -12 5 -21 10 -21 6
0 10 4 10 9 0 5 10 7 23 4 19 -5 18 -1 -11 26 -36 34 -48 33 -62 -5 -6 -15
-17 -24 -31 -24 -21 0 -20 1 5 21 40 32 34 49 -19 49 -35 0 -43 -3 -39 -15 4
-8 1 -15 -5 -15 -6 0 -11 7 -11 15 0 8 -6 15 -13 15 -9 0 -12 -10 -9 -30 2
-17 7 -29 9 -26 9 9 31 -18 26 -31 -3 -7 0 -13 6 -13 6 0 11 5 11 10 0 6 5 10
10 10 6 0 10 -9 10 -20 0 -14 7 -20 22 -20 21 0 21 0 2 15 -19 14 -18 14 3 15
16 0 25 -8 29 -25 3 -14 13 -25 21 -25 10 0 12 6 8 21 -5 15 -4 19 4 15 16
-10 13 -36 -5 -43 -8 -3 -26 0 -40 7 -19 11 -27 11 -36 2 -9 -9 -9 -12 1 -12
7 0 10 -4 6 -10 -3 -5 -12 -7 -20 -3 -18 6 -19 -1 -4 -29 9 -17 13 -18 20 -7
7 11 9 10 9 -4 0 -19 -45 -41 -62 -31 -6 4 -8 2 -4 -4 4 -6 21 -8 41 -5 21 3
35 1 35 -5 0 -14 -62 -22 -77 -10 -9 8 -13 6 -13 -5 0 -8 6 -17 13 -20 9 -3 9
-10 -2 -28 -13 -22 -13 -23 2 -11 12 10 21 11 36 2 12 -6 21 -15 21 -20 0 -14
-6 -12 -24 5 -14 14 -18 14 -40 0 -25 -17 -52 -12 -41 6 5 8 -18 13 -29 7 -3
-2 -16 8 -30 21 -28 27 -35 57 -11 47 8 -3 29 1 47 9 l33 14 -27 1 c-16 0 -28
4 -28 10 0 12 -40 34 -48 26 -3 -4 3 -13 14 -20 19 -14 19 -15 -3 -23 -12 -4
-22 -12 -22 -18 0 -5 -5 -11 -11 -13 -8 -3 -10 3 -6 16 6 17 3 19 -15 15 l-23
-6 21 29 c27 39 26 64 -3 64 -14 0 -25 8 -29 20 -3 11 -11 20 -16 20 -6 0 -8
-9 -4 -19 3 -11 1 -22 -4 -25 -12 -8 -25 30 -16 45 5 7 -1 9 -16 7 -21 -3 -24
1 -21 25 2 15 -1 27 -7 27 -6 0 -11 -4 -11 -10 0 -21 -2 -25 -16 -33 -19 -11
-33 1 -15 12 11 7 11 10 0 14 -10 4 -10 6 -1 6 6 1 12 8 12 16 0 8 4 15 9 15
5 0 11 6 14 13 4 11 -39 14 -235 16 -213 2 -240 0 -235 -14 4 -8 2 -15 -3 -15
-6 0 -10 7 -10 15 0 8 -4 15 -10 15 -5 0 -10 -9 -10 -20 0 -11 -6 -20 -14 -20
-8 0 -13 8 -12 17 0 12 -7 19 -21 21 -16 2 -23 -2 -23 -14 0 -16 -1 -16 -19 0
-15 14 -35 17 -100 15 -44 -2 -81 -6 -81 -10 0 -4 -9 -9 -20 -12 -12 -3 -20 0
-20 8 0 9 -22 13 -80 13 -78 1 -80 0 -80 -24z m310 -79 c7 -8 16 -15 21 -15 5
0 9 7 9 15 0 8 5 15 11 15 6 0 8 -9 4 -20 -4 -11 -2 -20 4 -20 6 0 11 -5 11
-11 0 -5 -4 -8 -9 -4 -5 3 -13 0 -16 -6 -5 -7 -14 -3 -26 10 -25 27 -39 27
-32 1 4 -16 2 -19 -11 -14 -9 3 -16 1 -16 -5 0 -6 12 -11 27 -11 21 0 24 -3
15 -12 -17 -17 -15 -38 3 -38 9 0 12 6 9 15 -4 10 0 15 15 15 12 0 21 -4 21
-10 0 -5 7 -10 15 -10 11 0 14 7 9 24 -4 18 -1 25 15 29 12 3 18 0 16 -7 -2
-6 -6 -24 -9 -41 -6 -27 -5 -28 8 -12 7 10 20 16 27 15 7 -2 13 6 14 16 0 11
6 21 13 23 7 3 10 -1 6 -11 -4 -10 3 -24 17 -37 23 -19 23 -20 3 -14 -25 6
-42 -20 -18 -29 8 -3 14 -1 14 4 0 6 7 10 15 10 8 0 15 5 15 11 0 5 5 7 12 3
9 -6 9 -9 0 -12 -7 -2 -12 -12 -12 -23 0 -12 -5 -16 -14 -13 -17 6 -33 -15
-19 -25 13 -8 26 -108 17 -123 -4 -7 -14 -2 -26 13 -11 13 -16 18 -12 10 5
-11 3 -13 -9 -8 -9 3 -19 2 -22 -3 -4 -7 -13 -6 -25 0 -10 5 -26 7 -36 3 -12
-4 -15 -3 -10 5 4 7 1 12 -7 12 -8 0 -18 -11 -21 -25 -4 -14 -11 -25 -16 -25
-14 0 -12 28 3 33 8 3 3 11 -13 25 -23 19 -26 19 -42 5 -16 -15 -18 -15 -18 0
0 10 -4 17 -10 17 -5 0 -10 5 -10 11 0 5 5 7 10 4 6 -3 10 -2 10 4 0 5 -14 12
-30 16 -23 5 -28 10 -21 19 14 16 4 26 -17 19 -11 -5 -14 -2 -9 10 9 24 -2 47
-22 47 -14 -1 -14 -2 3 -15 10 -7 15 -18 11 -24 -9 -16 -25 -13 -25 4 0 9 -12
18 -29 21 -21 4 -28 11 -24 21 4 11 8 11 13 3 5 -8 9 -5 12 8 3 12 16 22 29
24 13 2 23 8 22 14 -3 18 35 13 40 -6 3 -13 11 -17 24 -14 11 3 27 -2 37 -11
9 -9 16 -14 16 -12 0 3 3 12 6 21 4 11 0 16 -12 16 -30 1 -69 26 -54 35 7 4
16 2 20 -5 5 -9 10 -6 15 11 15 49 41 62 65 34z m10465 5 c-3 -5 6 -28 20 -50
20 -31 30 -40 45 -35 23 7 34 -9 37 -55 2 -33 1 -34 -13 -16 -8 11 -14 24 -14
30 0 6 -5 5 -12 -2 -16 -16 -26 -15 -24 1 0 6 -3 13 -9 14 -11 3 -11 0 -13
-64 -1 -24 -6 -43 -12 -43 -5 0 -10 7 -10 16 0 10 -6 13 -19 9 -12 -3 -21 0
-25 10 -8 22 -36 18 -36 -6 0 -11 -4 -17 -10 -14 -6 4 -8 15 -5 25 3 10 1 21
-5 25 -6 3 -8 11 -5 16 4 5 -6 9 -21 9 -27 0 -27 1 -8 15 10 8 24 15 30 15 15
0 25 -37 13 -44 -5 -2 -4 -3 3 -2 7 2 21 -1 31 -6 19 -10 23 2 6 19 -6 6 -8
16 -5 22 9 14 34 3 39 -17 2 -10 3 8 1 38 -2 30 -6 65 -10 78 -5 18 -2 22 15
22 12 0 20 -4 16 -10z m-9784 -183 c-1 -4 -1 -14 -1 -23 0 -10 -6 -14 -15 -10
-26 10 -16 -20 10 -32 32 -15 55 -15 55 -2 0 6 -10 10 -22 10 -16 0 -19 3 -11
11 6 6 9 18 6 25 -3 8 0 14 6 14 6 0 11 -4 11 -10 0 -5 5 -10 10 -10 6 0 10 6
10 14 0 8 10 14 25 14 29 0 33 -15 8 -25 -16 -6 -15 -8 5 -13 28 -6 29 -26 2
-22 -23 4 -23 2 -10 -33 6 -16 16 -25 24 -22 7 3 19 1 27 -4 18 -11 20 -46 3
-53 -8 -3 -14 1 -14 9 0 8 5 15 11 15 5 0 7 5 4 10 -3 6 -22 10 -41 10 -21 0
-33 -4 -29 -10 3 -5 15 -10 26 -10 15 0 18 -5 15 -25 -3 -14 0 -25 6 -25 6 0
9 -3 6 -6 -9 -8 -59 27 -52 37 3 5 -2 9 -10 9 -8 0 -22 10 -30 22 -14 19 -16
20 -16 5 0 -10 -5 -15 -11 -12 -6 4 -8 14 -5 22 7 17 -41 62 -66 63 -10 0 -18
5 -18 11 0 7 -9 9 -21 6 -16 -4 -18 -3 -8 9 15 18 38 18 45 -1 6 -15 26 -22
22 -7 -3 11 26 52 35 49 5 -1 8 -6 8 -10z m1049 -22 c0 -8 -4 -15 -10 -15 -5
0 -10 -7 -10 -15 0 -20 17 -19 29 3 9 16 11 16 26 -3 10 -12 15 -14 12 -5 -3
10 3 15 21 17 14 0 20 -2 13 -6 -9 -6 -8 -11 5 -22 9 -7 20 -22 24 -34 8 -19
9 -19 9 -1 1 18 2 18 20 2 16 -14 18 -23 10 -43 -6 -18 -6 -30 2 -39 16 -20 3
-30 -16 -14 -11 9 -14 22 -10 41 6 25 3 29 -27 37 -35 10 -64 3 -34 -8 10 -3
17 -10 16 -15 -1 -5 7 -12 17 -16 14 -5 11 -8 -14 -13 -37 -9 -39 -12 -19 -32
16 -16 40 -19 31 -4 -3 6 1 7 9 4 20 -8 20 -12 0 -31 -14 -14 -17 -14 -35 6
-24 26 -32 27 -24 2 5 -16 0 -18 -45 -17 -27 1 -50 4 -50 7 0 3 19 12 41 19
30 10 45 22 54 45 16 36 13 40 -15 23 -18 -11 -23 -11 -36 6 -10 15 -11 22 -3
27 7 4 9 14 6 23 -6 15 -25 21 -54 17 -19 -3 -16 14 10 43 25 29 47 34 47 11z
m-370 -51 c0 -14 4 -22 10 -19 6 3 10 -1 10 -9 0 -22 20 -20 21 2 0 15 1 15 8
-2 5 -14 10 -16 15 -8 10 17 26 15 26 -3 0 -8 4 -15 9 -15 5 0 8 7 7 16 0 9 5
19 12 21 6 3 12 -3 12 -12 0 -12 5 -15 21 -10 14 5 19 3 15 -3 -3 -6 0 -13 6
-15 10 -4 10 -8 -1 -15 -10 -7 -11 -14 -2 -28 9 -17 10 -17 11 -1 0 9 6 17 14
17 8 0 17 7 20 16 7 19 47 15 54 -5 3 -10 0 -12 -11 -8 -20 8 -43 -18 -26 -29
7 -4 14 -3 17 4 2 6 10 8 18 5 10 -4 5 -11 -18 -23 -32 -17 -54 -17 -43 0 3 4
-10 7 -28 6 -29 -1 -32 2 -35 32 -4 39 -22 33 -22 -8 0 -36 -24 -46 -51 -19
-19 19 -46 18 -33 -2 4 -7 -9 -8 -35 -4 -23 3 -41 2 -40 -2 4 -26 -5 -24 -30
6 l-28 34 -23 -21 c-29 -27 -36 -27 -43 -2 -3 11 -1 18 4 14 5 -3 9 -1 9 5 0
5 19 13 43 17 23 4 37 9 30 11 -9 3 -9 10 -1 28 9 19 16 23 35 19 20 -5 23 -2
23 21 0 15 4 24 10 20 6 -3 10 -17 10 -31z m-72 -269 c-4 -19 0 -26 16 -31 12
-3 31 -18 44 -32 l22 -27 7 24 c6 23 7 23 13 5 4 -10 4 -26 0 -34 -4 -8 -1
-26 6 -40 13 -24 13 -24 27 20 3 10 8 5 16 -14 10 -25 9 -31 -4 -38 -8 -5 -15
-16 -15 -23 0 -8 -4 -15 -10 -15 -5 0 -10 7 -10 15 0 8 -4 15 -10 15 -5 0 -10
-4 -10 -9 0 -5 -7 -17 -16 -26 -13 -12 -14 -19 -4 -30 7 -8 16 -12 21 -9 5 3
9 0 9 -5 0 -6 7 -11 16 -11 13 0 15 -6 9 -27 -4 -16 -8 -33 -8 -40 0 -7 -4
-10 -9 -7 -4 3 -5 16 -2 30 5 18 2 24 -9 24 -9 0 -18 9 -22 19 -7 23 -46 35
-57 18 -4 -7 -8 -20 -8 -31 0 -21 -36 -56 -56 -56 -17 0 -47 67 -46 100 1 19
-3 14 -15 -16 -14 -37 -21 -43 -56 -48 -38 -6 -39 -8 -33 -38 3 -18 12 -36 19
-40 8 -5 4 -8 -10 -8 -16 0 -23 -6 -23 -20 0 -25 -37 -47 -53 -31 -9 9 -6 13
11 18 20 5 22 10 16 42 -4 20 -12 39 -17 43 -15 9 12 39 32 36 47 -6 97 32 96
73 0 24 -3 26 -23 18 -31 -12 -32 -12 -32 11 0 15 -7 20 -27 20 -26 0 -26 1
-7 15 25 19 44 19 44 0 0 -8 5 -15 11 -15 5 0 8 4 4 9 -3 5 -1 12 5 16 17 11
11 20 -20 32 -16 6 -30 16 -30 22 0 8 6 9 19 1 11 -5 26 -8 33 -5 8 3 14 -4
14 -20 1 -15 9 -34 17 -43 8 -9 12 -23 10 -29 -3 -9 5 -12 29 -10 18 2 32 8
31 15 -2 6 4 9 12 6 8 -4 15 -16 15 -28 l1 -21 18 23 c20 23 46 29 56 12 4 -6
11 -8 16 -4 5 3 7 9 4 14 -3 4 2 11 11 14 13 5 13 9 -3 29 -11 15 -24 22 -35
19 -12 -3 -18 1 -18 12 0 9 -5 16 -11 16 -7 0 -9 -10 -7 -24 6 -28 -4 -35 -44
-30 -19 2 -28 -2 -28 -12 0 -21 -18 -17 -25 5 -3 11 -12 22 -20 25 -8 3 -15
10 -15 16 0 12 27 14 32 2 4 -12 78 -23 78 -11 0 5 -7 9 -15 9 -20 0 -19 13 4
34 12 11 21 14 26 7 10 -17 35 -13 35 5 0 11 -6 15 -20 11 -26 -7 -52 41 -36
66 15 24 19 21 14 -8z m5032 -230 c0 -3 -4 -3 -10 0 -5 3 -10 -1 -10 -10 0
-11 5 -15 15 -11 21 8 55 -15 55 -36 0 -21 17 -33 22 -16 3 7 7 2 11 -11 4
-18 2 -21 -10 -17 -9 4 -21 2 -27 -2 -6 -5 -20 -12 -31 -15 -18 -6 -18 -6 -3
6 10 8 16 26 16 45 -1 28 -4 31 -27 28 -14 -2 -34 -7 -43 -11 -10 -4 -18 -3
-18 3 0 6 6 12 12 14 9 3 8 9 -4 21 -19 19 -38 22 -38 7 0 -6 -12 -15 -26 -20
-14 -6 -22 -15 -19 -20 5 -8 11 -7 21 1 12 10 18 9 31 -4 15 -15 15 -16 -5
-10 -22 5 -31 -10 -12 -22 6 -4 8 -10 5 -15 -3 -5 8 -4 25 2 18 6 34 17 37 24
7 19 33 18 33 -1 0 -8 -8 -15 -17 -15 -16 0 -16 -2 -3 -10 11 -8 8 -9 -12 -4
-18 4 -28 2 -28 -6 0 -6 -3 -9 -7 -7 -5 3 -19 1 -32 -4 -20 -8 -21 -11 -10
-25 11 -14 10 -15 -10 -12 -14 2 -27 13 -33 27 -8 22 -7 22 9 10 15 -12 16
-12 10 4 -3 9 -2 17 3 17 18 0 10 18 -10 23 -13 3 -18 11 -14 20 3 10 -1 17
-13 20 -14 4 -13 5 6 6 13 0 36 12 53 26 32 27 54 32 61 13 3 -7 6 -2 6 11 l1
25 20 -22 c11 -12 20 -24 20 -27z m-2570 -70 c0 -9 -6 -12 -16 -8 -12 4 -15 1
-12 -13 2 -12 12 -19 26 -18 28 1 28 -12 1 -26 -27 -15 -19 -23 12 -12 15 6
30 5 41 -2 14 -8 20 -7 30 7 9 11 21 15 36 11 32 -9 27 -24 -8 -24 -16 0 -30
-4 -30 -10 0 -5 4 -10 8 -10 4 0 8 -9 9 -19 2 -21 -23 -36 -32 -20 -4 5 -10 7
-15 4 -9 -6 -23 25 -15 34 3 3 10 -1 15 -9 5 -8 12 -11 16 -8 3 4 0 13 -8 21
-16 17 -87 13 -103 -5 -7 -8 -5 -9 8 -5 11 4 16 3 12 -4 -4 -6 -14 -8 -22 -5
-8 3 -24 1 -35 -5 -16 -8 -17 -13 -8 -22 10 -9 14 -9 17 1 3 6 9 9 15 6 7 -4
6 -9 -2 -14 -7 -4 -9 -13 -5 -20 9 -14 46 20 37 34 -3 5 0 6 6 2 18 -11 14
-29 -12 -54 -20 -18 -25 -19 -30 -7 -7 19 -26 19 -26 0 0 -8 7 -15 15 -15 20
0 19 -19 -1 -27 -13 -5 -13 -7 -2 -14 21 -14 28 -11 28 11 0 11 5 20 10 20 6
0 10 -2 10 -4 0 -2 3 -11 6 -20 4 -11 1 -16 -10 -16 -9 0 -16 -3 -16 -7 0 -5
-13 -8 -28 -9 -25 -1 -29 3 -28 25 1 17 -4 25 -13 23 -7 -1 -24 4 -37 13 -29
19 -34 19 -34 0 0 -9 9 -15 24 -15 13 0 28 -6 32 -12 10 -14 12 -56 4 -60 -9
-4 -70 27 -70 35 0 5 15 6 33 2 l32 -6 -35 18 c-63 32 -87 53 -72 62 11 7 10
9 -3 15 -9 3 -13 11 -10 17 9 14 25 -2 29 -27 6 -37 23 -24 22 16 -1 41 -1 41
-31 36 -16 -4 -35 -14 -42 -23 -11 -15 -14 -15 -37 1 -14 9 -33 16 -43 16 -11
1 -7 6 12 14 l30 13 -27 6 c-16 4 -28 12 -28 17 0 14 18 12 22 -2 3 -8 11 -5
25 9 11 11 27 23 34 26 11 5 10 8 -4 17 -9 6 -15 15 -12 21 3 5 16 0 28 -12
18 -17 19 -21 7 -29 -13 -8 -12 -11 5 -24 17 -13 17 -15 3 -16 -9 0 -18 5 -20
12 -2 6 -10 8 -17 4 -9 -6 -7 -12 8 -22 16 -12 25 -12 42 -4 11 6 18 18 15 25
-3 8 0 15 6 17 8 3 9 11 3 24 -4 10 -7 26 -6 33 2 13 0 13 -13 2 -9 -8 -19
-11 -23 -7 -8 8 -3 12 24 20 19 6 23 2 28 -28 7 -37 35 -72 35 -44 0 8 -5 19
-11 25 -7 7 -5 12 6 17 15 5 17 0 13 -34 -2 -22 -3 -40 -1 -40 1 0 8 7 17 15
9 9 17 11 21 5 3 -5 1 -10 -4 -10 -6 0 -11 -7 -11 -15 0 -20 -15 -19 -35 2
-14 13 -18 14 -25 3 -6 -10 0 -19 21 -32 16 -10 34 -18 39 -18 6 0 10 -4 10
-10 0 -5 -7 -10 -15 -10 -8 0 -15 5 -15 11 0 5 -4 7 -10 4 -16 -10 -12 -21 13
-32 24 -11 47 3 39 25 -5 16 15 16 22 0 4 -7 4 -2 1 12 -3 18 3 31 22 47 21
19 24 25 13 38 -10 12 -16 13 -26 4 -11 -9 -18 -8 -30 2 -13 11 -13 14 -1 21
17 9 82 -14 70 -25 -3 -4 -1 -7 5 -7 16 0 28 23 14 28 -18 6 -14 40 6 51 24
14 32 13 32 -4z"/>
<path d="M10474 16748 c-4 -6 -3 -13 2 -17 22 -16 13 -36 -18 -38 -17 -1 -35
-8 -39 -15 -6 -9 -13 -9 -34 0 -39 18 -48 15 -41 -13 4 -14 2 -25 -4 -25 -5 0
-10 5 -10 11 0 5 -4 8 -9 5 -5 -3 -7 -15 -4 -27 5 -18 2 -20 -23 -17 -17 2
-28 8 -26 16 1 6 -2 12 -8 12 -5 0 -13 0 -17 0 -5 0 -8 -3 -9 -7 0 -5 -4 -16
-9 -26 -5 -11 -2 -24 9 -36 18 -20 21 -41 6 -41 -5 0 -10 -6 -10 -13 0 -7 -9
-18 -20 -25 -29 -18 -15 -33 26 -28 50 5 64 23 30 36 -28 10 -27 32 2 29 59
-5 72 15 17 25 -21 4 -35 13 -35 21 0 20 19 19 26 0 7 -17 34 -21 34 -4 0 5 5
7 10 4 6 -3 10 -15 10 -26 0 -10 5 -19 10 -19 17 0 11 42 -7 55 -15 11 -15 15
-4 29 7 9 18 16 23 16 6 0 5 -6 -2 -15 -9 -11 -8 -20 10 -45 17 -23 20 -34 11
-43 -18 -18 -13 -27 14 -27 23 0 24 2 15 20 -6 11 -8 25 -5 30 3 6 0 10 -7 10
-13 0 -15 15 -10 73 1 9 7 17 12 17 7 0 7 -6 0 -20 -12 -22 -1 -27 18 -8 9 9
12 9 12 1 0 -7 -4 -14 -9 -17 -5 -3 -7 -16 -4 -27 6 -21 6 -21 19 2 17 31 17
56 2 62 -10 4 -10 6 0 6 7 1 17 -10 22 -23 8 -21 15 -24 55 -24 25 1 48 5 51
10 3 4 -4 8 -15 8 -24 0 -25 1 -10 34 10 20 9 30 -4 50 -9 13 -12 26 -7 28 5
2 -2 8 -15 15 -17 7 -27 8 -31 1z"/>
<path d="M10560 16641 c0 -23 25 -51 46 -51 16 0 19 -26 4 -35 -15 -9 -12 -51
5 -65 8 -6 18 -9 22 -7 5 3 10 -3 10 -14 2 -23 -12 -25 -21 -4 -6 17 -36 20
-36 4 0 -7 8 -17 17 -24 16 -12 16 -14 0 -30 -10 -10 -24 -14 -34 -10 -10 3
-14 3 -11 -1 4 -4 3 -14 -2 -23 -6 -13 -4 -17 10 -18 11 -1 22 7 25 18 4 10
13 19 21 19 8 0 14 4 14 9 0 18 33 21 44 5 7 -9 21 -14 32 -11 16 4 16 5 -4 6
-13 0 -20 6 -17 11 3 6 -1 13 -9 16 -15 6 -17 36 -3 50 3 4 0 16 -8 28 -17 23
-20 60 -5 51 6 -3 10 -13 10 -22 0 -12 35 -53 46 -53 1 0 0 10 -3 23 -4 18 -3
19 6 7 9 -13 11 -11 11 7 0 25 -16 40 -23 21 -2 -7 -8 -10 -12 -6 -4 4 0 17 9
30 9 12 16 27 16 33 0 5 -5 3 -10 -5 -12 -19 -70 -21 -70 -3 0 17 27 17 33 1
2 -7 8 -9 13 -5 13 12 -18 28 -44 22 -15 -4 -32 2 -50 16 l-27 22 28 -7 c19
-4 26 -3 22 4 -3 5 -17 10 -31 10 -17 0 -24 -6 -24 -19z"/>
<path d="M4708 16039 c-28 -16 -22 -32 9 -24 23 5 25 4 14 -9 -17 -20 -26 -20
-45 0 -9 8 -16 11 -16 5 0 -6 9 -20 20 -31 18 -18 18 -20 3 -20 -17 -1 -17 -1
0 -14 17 -14 23 -27 10 -25 -20 3 -33 -2 -33 -12 0 -8 6 -7 17 2 15 13 16 11
9 -16 -12 -51 -11 -58 2 -62 8 -3 10 1 5 13 -6 16 -5 16 8 4 9 -8 13 -25 11
-42 -5 -31 12 -37 43 -15 14 11 15 16 5 22 -7 4 -16 2 -21 -6 -4 -7 -11 -10
-14 -7 -4 4 -3 13 1 20 16 25 14 48 -5 67 -13 13 -18 30 -15 56 1 20 5 39 7
42 11 10 47 -23 47 -44 0 -13 5 -23 10 -23 6 0 10 5 10 10 0 6 5 10 11 10 5 0
9 -9 7 -20 -2 -10 2 -18 7 -17 10 2 15 60 7 85 -2 6 -10 12 -16 12 -7 0 -12
10 -12 22 1 15 -6 24 -19 26 -20 4 -20 4 -1 -17 19 -21 19 -21 -1 -21 -11 0
-27 9 -34 20 -11 15 -18 17 -31 9z"/>
<path d="M4643 15969 c-6 -6 -9 -17 -7 -24 3 -7 -4 -15 -15 -18 -14 -3 -18 -1
-14 9 7 18 -5 18 -23 0 -8 -9 -26 -13 -42 -10 l-27 4 24 -21 c21 -17 22 -22
10 -29 -7 -5 -21 -7 -31 -4 -17 5 -39 -17 -21 -23 5 -2 8 -15 5 -28 -2 -15 0
-25 7 -25 6 0 11 10 11 23 0 16 3 18 9 9 7 -12 12 -12 30 0 14 8 24 9 29 3 18
-26 82 -9 82 22 0 9 -8 25 -17 35 -12 14 -14 21 -6 26 15 9 28 62 16 62 -5 0
-14 -5 -20 -11z"/>
<path d="M13313 7478 c-32 -61 -47 -100 -47 -123 -1 -11 -9 -21 -18 -23 -14
-3 -18 3 -18 29 l0 33 -21 -23 c-16 -17 -20 -30 -15 -57 6 -29 4 -34 -13 -34
-31 0 -34 17 -12 59 19 37 18 51 -1 51 -4 0 -16 -18 -25 -40 -18 -41 -50 -57
-40 -20 5 21 -7 28 -18 10 -10 -16 -25 -12 -25 7 0 10 7 37 16 60 9 24 14 47
10 50 -10 11 -25 -17 -32 -59 -5 -27 -12 -38 -30 -42 -20 -5 -23 -11 -18 -35
6 -29 -18 -91 -36 -91 -6 0 -10 -16 -10 -35 0 -24 -5 -35 -15 -35 -19 0 -19
29 0 57 8 11 17 43 20 69 3 27 15 70 26 96 23 49 20 78 -6 78 -9 0 -15 -9 -15
-22 0 -35 -31 -108 -46 -108 -9 0 -14 11 -14 30 0 17 -4 30 -8 30 -10 0 -32
-45 -32 -66 0 -25 -30 -74 -45 -74 -8 0 -15 9 -15 19 0 25 -17 36 -34 22 -8
-7 -20 -10 -27 -9 -9 2 -13 -4 -10 -17 2 -11 5 -46 7 -78 2 -43 0 -57 -9 -54
-7 2 -11 16 -9 31 2 14 -4 36 -12 47 -13 19 -14 15 -21 -50 -7 -74 -2 -89 39
-104 15 -6 17 -14 11 -45 -4 -20 -11 -40 -17 -43 -5 -3 -9 -10 -8 -15 1 -5
-12 -13 -29 -18 -32 -9 -42 -26 -16 -26 23 0 30 -28 14 -57 -11 -21 -11 -27
-1 -30 6 -3 12 -17 12 -33 0 -27 22 -46 41 -34 5 3 9 -4 9 -15 0 -12 4 -21 10
-21 20 0 30 -37 19 -69 -9 -25 -8 -34 5 -47 28 -28 17 -39 -12 -11 -25 24 -28
25 -39 9 -6 -9 -14 -13 -19 -9 -5 4 -3 17 4 27 10 16 9 28 0 60 -7 22 -18 40
-25 40 -9 0 -10 -7 -3 -26 15 -39 13 -84 -5 -84 -8 0 -15 5 -15 10 0 6 -4 10
-10 10 -21 0 -9 -30 18 -42 22 -11 27 -20 28 -51 1 -27 8 -43 22 -53 14 -9 21
-24 20 -39 -2 -23 -18 -37 -18 -16 0 5 -16 28 -35 51 -19 23 -35 53 -35 66 0
13 -4 24 -10 24 -5 0 -10 -9 -10 -20 0 -12 -7 -20 -17 -20 -14 0 -13 -3 5 -20
25 -24 29 -60 7 -60 -9 0 -20 10 -25 23 -5 12 -19 33 -30 46 -18 21 -23 22
-31 10 -15 -23 -10 -37 14 -41 16 -2 23 -11 25 -32 2 -18 11 -30 23 -33 21 -6
27 -33 7 -33 -7 0 -2 -7 10 -16 18 -12 22 -24 20 -52 -3 -33 0 -37 22 -40 14
-2 30 -8 37 -13 6 -6 22 -7 35 -4 16 4 29 0 41 -13 17 -18 16 -19 -35 -16 -49
2 -54 0 -66 -24 -10 -21 -9 -29 3 -42 18 -20 10 -30 -22 -30 -25 0 -29 10 -12
27 15 15 2 67 -22 89 -15 13 -22 15 -31 6 -16 -16 -61 -15 -76 0 -7 7 -12 31
-12 55 0 33 4 45 18 49 57 18 64 24 48 39 -19 19 -46 19 -46 1 0 -23 -58 -48
-82 -35 -13 7 -17 16 -12 27 13 32 16 72 5 72 -6 0 -11 -7 -11 -16 0 -9 -9
-28 -21 -42 -13 -17 -18 -34 -14 -49 5 -23 -8 -32 -20 -13 -4 6 -11 8 -16 5
-16 -10 -10 -40 11 -55 22 -16 28 -44 8 -38 -7 3 -17 14 -23 27 -8 17 -17 21
-44 19 -21 -2 -36 2 -38 10 -3 7 4 12 16 12 20 0 41 26 41 51 0 7 -10 3 -23
-9 -25 -24 -37 -20 -37 10 0 10 -7 18 -15 18 -9 0 -21 11 -27 25 -6 14 -17 25
-25 25 -16 0 -16 0 2 43 22 53 20 56 -32 54 -36 -2 -48 2 -49 13 0 8 -2 27 -2
43 -1 17 -8 27 -17 27 -8 0 -15 8 -15 18 0 13 -12 21 -42 29 -55 15 -75 7 -52
-18 16 -18 16 -19 -4 -19 -21 0 -26 9 -23 38 1 6 -3 12 -9 12 -5 0 -10 -5 -10
-11 0 -7 -7 -17 -15 -23 -14 -10 -14 -13 -1 -31 13 -16 17 -18 25 -6 5 8 16
11 25 8 17 -7 22 -27 7 -27 -5 0 -7 -9 -4 -20 8 -29 -12 -25 -46 11 -17 18
-32 26 -36 20 -9 -16 -25 -13 -25 4 0 8 6 15 14 15 12 0 32 30 24 34 -2 1 -10
7 -19 14 -20 15 -49 6 -50 -17 0 -10 -3 -8 -10 7 -5 13 -6 28 -3 33 7 12 -5
49 -17 49 -5 0 -9 -10 -9 -22 0 -13 -1 -45 -2 -73 -3 -41 -6 -49 -20 -47 -12
2 -18 -4 -18 -16 0 -23 -35 -33 -70 -20 -17 6 -20 11 -11 22 8 10 7 24 -4 56
-19 53 -19 60 0 60 8 0 15 9 15 19 0 27 -32 16 -47 -16 -9 -19 -10 -30 -2 -39
13 -16 3 -35 -15 -28 -7 3 -19 -3 -27 -12 -11 -13 -11 -18 -1 -21 13 -5 17
-53 4 -53 -4 0 -15 9 -25 20 -20 24 -35 26 -43 5 -8 -21 -34 -19 -32 3 1 9 0
34 0 55 -2 30 -6 38 -19 35 -9 -2 -20 -17 -25 -34 -5 -19 -18 -35 -34 -43 -17
-8 -24 -17 -20 -27 3 -9 6 -22 6 -30 0 -8 9 -14 20 -14 11 0 20 -6 20 -14 0
-7 7 -19 15 -26 8 -7 15 -21 15 -32 0 -28 -34 -19 -38 10 -2 12 -8 22 -14 22
-7 0 -8 -15 -4 -40 5 -31 3 -40 -8 -40 -8 0 -16 7 -20 15 -3 8 -10 15 -16 15
-5 0 -10 -7 -10 -15 0 -8 5 -15 10 -15 6 0 10 -4 10 -10 0 -5 -6 -10 -14 -10
-20 0 -23 -7 -31 -72 -7 -54 -6 -56 14 -51 20 5 21 1 21 -54 0 -49 4 -63 23
-81 13 -12 29 -22 35 -22 7 0 12 -4 12 -8 0 -12 -102 10 -118 25 -7 7 -18 13
-23 13 -6 0 -7 5 -4 10 10 16 -26 24 -47 11 -10 -6 -23 -9 -27 -6 -14 8 12 53
34 61 16 6 13 8 -15 11 -19 3 -40 9 -46 14 -16 13 -46 -1 -42 -20 2 -9 11 -15
20 -13 9 1 19 -2 23 -8 3 -5 -1 -10 -11 -10 -12 0 -15 -6 -10 -22 3 -13 6 -31
6 -40 0 -11 8 -18 20 -18 21 0 26 -16 11 -39 -7 -11 -11 -9 -20 8 -7 11 -16
21 -22 21 -6 0 -7 -4 -4 -10 9 -14 -1 -13 -35 5 l-29 15 2 -33 c2 -29 -1 -32
-30 -35 -25 -3 -33 1 -33 13 0 13 -6 16 -25 11 -25 -6 -30 3 -27 53 0 8 -8 26
-19 39 -10 14 -19 20 -19 13 0 -6 -10 -11 -21 -11 -16 0 -20 5 -16 20 4 17 1
19 -20 14 -23 -6 -25 -4 -18 17 7 23 6 23 -8 5 -8 -12 -20 -17 -31 -13 -19 7
-46 -1 -46 -14 0 -5 6 -9 14 -9 15 0 32 -37 22 -47 -3 -3 -13 4 -23 16 -18 22
-18 22 -35 2 -10 -12 -13 -23 -8 -26 6 -4 10 -14 10 -23 0 -15 -1 -15 -17 0
-14 14 -15 22 -5 43 10 22 9 25 -8 25 -16 0 -50 -24 -50 -36 0 -3 7 -16 16
-29 16 -25 13 -55 -6 -55 -5 0 -10 7 -10 15 0 18 -16 20 -24 3 -5 -10 -7 -10
-12 0 -7 14 -30 16 -39 2 -3 -5 -1 -19 5 -31 9 -17 8 -23 -6 -33 -19 -14 -12
-36 12 -36 25 0 16 -40 -11 -50 -16 -6 -25 -16 -23 -26 2 -9 -2 -19 -9 -21
-17 -6 -29 47 -13 57 21 13 -21 29 -49 19 -17 -7 -22 -15 -18 -29 6 -22 0 -25
-23 -10 -12 8 -12 11 3 28 9 10 14 22 10 25 -3 4 6 20 21 36 32 33 23 46 -27
36 -27 -5 -30 -4 -16 7 26 21 30 67 8 89 -11 11 -21 19 -24 19 -23 2 -35 15
-29 33 5 17 3 19 -15 14 -16 -4 -21 -1 -21 13 0 10 -9 20 -21 23 -15 4 -19 11
-15 25 4 11 0 24 -9 32 -18 15 -10 31 13 24 14 -4 13 -3 -2 8 -11 7 -28 21
-39 32 -15 14 -21 15 -27 6 -4 -7 -15 -10 -23 -7 -9 3 -21 0 -27 -8 -9 -11
-16 -12 -31 -2 -17 10 -23 9 -34 -7 -12 -16 -17 -17 -30 -6 -8 7 -15 21 -15
31 0 11 -5 19 -11 19 -5 0 -9 8 -8 18 3 31 -1 40 -18 45 -15 4 -15 5 2 6 16 1
54 51 39 51 -7 0 -48 -24 -66 -39 -12 -10 -18 -10 -18 -3 0 7 -11 12 -24 12
-14 0 -28 5 -31 10 -9 15 -25 12 -25 -5 0 -12 -5 -13 -25 -3 -19 9 -29 8 -48
-5 -19 -12 -27 -13 -36 -4 -10 9 -14 8 -22 -5 -12 -22 -59 -24 -59 -4 0 8 -6
16 -12 19 -10 3 -10 7 -2 18 12 15 13 47 2 65 -4 6 -5 32 -3 57 5 50 -4 61
-20 25 -16 -35 -42 -34 -50 1 -8 38 -14 38 -50 5 -24 -22 -31 -24 -52 -15 -15
7 -23 17 -20 25 4 10 0 12 -14 9 -21 -6 -25 7 -8 24 11 11 9 50 -2 42 -10 -6
-49 32 -49 48 0 7 -7 13 -16 13 -10 0 -14 -5 -10 -15 3 -8 3 -28 0 -44 l-6
-28 -23 21 c-17 16 -21 29 -18 54 5 27 2 32 -15 32 -12 0 -23 9 -27 21 -9 27
-40 57 -71 69 -14 6 -23 14 -20 19 3 5 -1 11 -9 15 -19 7 -19 4 0 -41 18 -44
19 -46 1 -40 -13 5 -36 -10 -36 -24 0 -4 10 -9 23 -12 19 -3 18 -5 -15 -20
-20 -9 -39 -21 -43 -27 -3 -5 -13 -10 -21 -10 -12 0 -14 9 -9 44 l7 43 -41 0
c-30 0 -42 -4 -46 -17 -7 -21 -35 -34 -47 -22 -11 11 10 72 25 72 6 0 7 3 3 7
-4 4 -15 8 -24 8 -13 0 -17 9 -17 34 0 38 -20 53 -28 21 -5 -21 -41 -28 -52
-10 -4 6 -15 8 -26 5 -11 -4 -19 -2 -19 5 0 6 6 8 13 4 6 -4 3 2 -8 13 -20 21
-38 20 -65 -3 -8 -7 -26 -14 -40 -16 -21 -2 -25 -8 -22 -33 l2 -30 -22 27
c-13 15 -36 30 -53 34 -16 4 -36 11 -42 16 -7 6 -19 8 -28 5 -19 -8 -31 11
-16 26 9 9 16 8 31 -1 28 -17 32 -15 20 8 -7 14 -7 20 0 20 5 0 10 7 10 15 0
21 -17 19 -37 -5 -12 -13 -19 -16 -24 -8 -8 12 9 49 29 61 6 4 12 12 12 17 0
16 -19 11 -42 -10 -23 -21 -54 -28 -42 -9 5 8 -3 10 -25 7 -28 -4 -32 -2 -28
14 7 24 -4 29 -28 12 -10 -8 -13 -14 -7 -14 7 0 12 -5 12 -12 0 -6 7 -20 17
-30 15 -17 15 -18 -4 -18 -14 0 -23 9 -27 25 -7 27 -24 33 -32 11 -3 -8 -24
-18 -46 -21 -32 -6 -43 -4 -50 9 -5 9 -16 16 -24 16 -14 0 -14 2 0 15 13 13
13 20 3 35 -17 28 -25 25 -44 -15 -17 -36 -33 -46 -33 -20 0 8 -4 15 -10 15
-5 0 -10 -9 -10 -19 0 -11 -5 -23 -11 -27 -8 -4 -9 3 -4 24 5 25 2 33 -14 42
-12 6 -21 19 -21 29 0 31 -13 33 -25 3 -10 -22 -18 -27 -41 -26 -16 1 -29 3
-29 5 0 1 -16 3 -37 4 -29 2 -35 -1 -30 -13 4 -11 1 -14 -11 -9 -11 4 -17 1
-17 -8 0 -9 -10 -15 -24 -15 -26 0 -69 -33 -78 -60 -4 -11 -9 -6 -18 15 -12
29 -12 30 -21 8 -6 -16 -17 -23 -36 -23 -21 0 -24 -3 -15 -12 19 -19 14 -31
-11 -24 -17 4 -25 0 -32 -17 -6 -12 -20 -26 -32 -32 -33 -17 -14 -39 21 -25
15 5 29 10 31 10 2 0 -10 -13 -25 -30 -24 -26 -35 -30 -78 -30 l-50 0 13 -44
c12 -39 12 -45 -2 -50 -21 -8 -23 -8 -23 8 0 18 -31 30 -41 15 -4 -7 -5 -18
-2 -26 3 -7 1 -13 -3 -13 -5 0 -15 -4 -23 -9 -11 -7 -8 -14 15 -34 33 -29 26
-45 -14 -31 -17 6 -27 17 -28 29 -1 31 -15 55 -31 55 -11 0 -14 -9 -11 -35 2
-19 0 -36 -6 -38 -5 -2 -7 -11 -3 -21 4 -11 13 -16 22 -12 8 3 15 1 15 -4 0
-6 -6 -10 -14 -10 -8 0 -16 -6 -19 -14 -4 -9 -14 -12 -26 -9 -15 4 -21 1 -21
-11 0 -9 -7 -16 -15 -16 -20 0 -20 36 0 44 19 7 19 30 1 46 -8 6 -16 26 -18
43 -3 28 -6 32 -30 29 -20 -3 -28 1 -28 12 0 9 -4 16 -9 16 -5 0 -12 8 -14 18
-4 15 -5 15 -6 -2 -1 -17 -57 -97 -73 -104 -5 -2 -8 -8 -8 -14 0 -6 6 -6 15 2
12 10 16 10 20 -1 9 -28 -2 -54 -28 -63 -29 -10 -47 -2 -31 14 14 14 5 80 -11
80 -17 0 -39 66 -30 88 20 45 9 193 -14 192 -12 -1 -38 -25 -50 -47 -14 -27
-71 -32 -91 -8 -15 18 -37 8 -53 -26 -15 -28 -47 -38 -47 -15 0 25 -19 19 -30
-9 -5 -14 -14 -25 -21 -25 -7 0 -8 -11 -4 -29 6 -27 4 -30 -22 -33 -19 -2 -28
-8 -27 -20 2 -19 -21 -25 -31 -8 -3 6 -10 10 -14 10 -11 0 -31 -46 -31 -71 0
-23 -27 -36 -43 -20 -8 8 -7 11 5 11 18 0 34 18 24 27 -3 3 -21 -8 -41 -26
-41 -36 -59 -32 -88 18 -16 28 -17 31 -2 31 17 0 16 21 -1 27 -6 2 -27 -12
-48 -31 -27 -24 -37 -39 -32 -51 6 -17 -27 -105 -40 -105 -3 0 -4 14 -2 32 6
37 -8 98 -22 98 -13 0 -13 -13 1 -27 15 -15 -2 -22 -30 -12 -19 8 -21 12 -11
24 12 15 6 35 -11 35 -5 0 -9 -7 -9 -16 0 -9 -13 -21 -29 -27 -16 -6 -35 -22
-41 -36 -6 -14 -20 -31 -31 -39 -12 -9 -18 -20 -14 -32 7 -22 -18 -30 -70 -21
-32 5 -40 11 -46 34 -4 16 -4 38 1 50 7 20 9 18 15 -15 8 -44 17 -48 32 -15
12 25 6 77 -8 77 -5 0 -9 7 -9 15 0 19 -40 41 -49 27 -7 -12 -51 20 -51 37 0
6 -6 11 -14 11 -9 0 -17 -15 -21 -37 -9 -51 -30 -80 -48 -65 -8 7 -17 8 -22 4
-4 -4 0 6 10 21 22 34 13 47 -12 18 -23 -28 -41 -27 -55 4 -8 18 -8 28 1 39
10 12 8 17 -9 26 -12 6 -19 18 -16 25 2 7 -3 20 -13 29 -14 13 -21 13 -42 2
-14 -7 -42 -15 -62 -19 -34 -5 -39 -3 -47 19 -8 20 -14 23 -35 18 -14 -3 -32
-1 -40 6 -8 6 -19 9 -24 6 -14 -9 -2 -36 17 -36 8 0 -13 -14 -48 -31 -56 -29
-64 -30 -72 -15 -11 20 -28 12 -28 -15 0 -16 -4 -19 -22 -13 -13 3 -25 11 -26
15 -2 5 -10 9 -18 9 -8 0 -14 7 -14 15 0 8 -9 19 -19 25 -16 8 -23 4 -41 -26
-15 -23 -26 -32 -32 -26 -12 12 -38 5 -38 -10 0 -16 -44 -47 -67 -48 -31 0
-29 17 5 38 29 18 33 52 6 52 -18 0 -18 15 -1 32 19 18 40 59 34 64 -3 3 -12
-2 -20 -11 -9 -8 -18 -15 -20 -15 -9 0 1 62 12 73 17 17 13 24 -16 25 -90 2
-113 6 -110 16 2 6 14 10 25 9 13 -2 26 6 34 20 17 32 18 47 2 47 -8 0 -14 -7
-14 -16 0 -8 -5 -12 -10 -9 -6 4 -8 10 -5 15 3 5 -4 11 -15 15 -26 8 -16 25
16 25 13 0 24 5 24 10 0 6 -5 10 -10 10 -6 0 -8 11 -4 25 5 20 3 24 -9 20 -8
-4 -19 -17 -25 -30 -7 -15 -21 -25 -39 -27 -20 -2 -32 -13 -47 -40 -16 -30
-25 -38 -48 -38 -34 0 -48 -26 -23 -44 15 -11 15 -13 1 -25 -13 -11 -21 -11
-48 0 -17 7 -26 15 -20 17 15 5 16 29 2 37 -6 4 -17 1 -25 -5 -8 -7 -22 -10
-30 -6 -17 6 -68 -41 -62 -58 2 -6 0 -22 -4 -35 -7 -17 -14 -22 -31 -18 -11 3
-34 -1 -49 -9 -37 -19 -42 -18 -34 9 9 29 -8 13 -29 -28 l-16 -30 0 33 c0 26
-4 33 -17 30 -10 -2 -19 -14 -21 -26 -2 -13 -10 -26 -18 -29 -9 -3 -12 -13 -9
-23 4 -14 0 -19 -17 -22 -13 -2 -24 -11 -27 -23 -2 -11 -13 -28 -25 -38 -11
-11 -20 -24 -18 -31 2 -7 -1 -7 -9 1 -10 10 -18 6 -41 -19 -21 -24 -31 -29
-40 -20 -8 8 -8 15 1 26 15 18 -5 57 -26 49 -7 -3 -13 0 -13 7 0 7 -7 10 -15
6 -9 -3 -15 0 -15 10 0 9 -7 14 -17 12 -19 -4 -21 -18 -9 -56 10 -30 -21 -43
-40 -17 -14 18 -14 18 -29 -1 -8 -10 -14 -27 -12 -38 2 -18 -10 -29 -46 -40
-10 -3 -17 -15 -17 -31 0 -20 -4 -25 -17 -21 -10 3 -36 1 -58 -4 -44 -10 -53
-7 -36 13 6 8 8 23 4 32 -5 14 -3 17 9 12 9 -3 23 2 34 14 9 10 12 19 6 19 -6
0 -14 -4 -17 -10 -9 -15 -25 -12 -25 5 0 8 -7 15 -15 15 -11 0 -14 7 -9 24 3
15 1 27 -8 33 -17 10 -57 59 -41 50 22 -14 25 14 3 33 -17 14 -21 26 -16 45 8
29 8 29 -38 10 -32 -14 -35 -18 -29 -46 5 -27 3 -31 -13 -27 -14 2 -18 10 -16
31 2 15 -1 27 -7 27 -6 0 -11 5 -11 10 0 6 7 10 16 10 8 0 12 5 9 10 -3 6 -17
10 -31 10 -21 0 -24 -4 -19 -19 5 -15 -1 -24 -24 -36 -35 -18 -54 -47 -45 -69
4 -11 1 -16 -10 -16 -9 0 -16 5 -16 10 0 6 -4 10 -9 10 -16 0 -24 -40 -11 -55
6 -8 8 -24 3 -42 -4 -15 -6 -35 -5 -43 2 -8 -6 -4 -17 10 -20 24 -20 24 -14 3
7 -28 -1 -29 -27 -3 -16 16 -17 20 -5 20 22 0 18 18 -6 31 -19 10 -21 17 -15
61 7 48 6 50 -13 45 -12 -3 -24 -1 -27 4 -14 24 -25 5 -20 -36 4 -44 4 -45
-25 -45 -26 0 -29 3 -29 32 0 25 -3 29 -12 20 -19 -19 -38 -14 -38 9 0 16 5
20 18 17 15 -4 18 1 18 27 -1 28 -4 32 -19 24 -23 -13 -34 14 -18 45 7 13 11
36 9 52 -3 26 -7 29 -40 29 -46 0 -64 15 -48 41 8 14 9 27 1 47 -13 34 -36 37
-27 2 5 -18 1 -27 -13 -35 -29 -15 -41 -12 -41 9 0 11 -4 22 -9 25 -12 8 -41
-38 -41 -64 0 -15 -6 -20 -29 -20 -26 0 -30 -4 -36 -40 -4 -25 -12 -40 -21
-40 -8 0 -14 -6 -13 -12 3 -28 -2 -38 -21 -38 -10 0 -24 -9 -30 -20 -6 -11
-15 -20 -19 -20 -17 0 -21 32 -6 53 19 27 19 38 1 31 -9 -3 -31 12 -55 36 -22
23 -45 39 -51 35 -5 -3 -10 1 -10 10 0 8 -7 18 -16 22 -9 3 -14 16 -13 32 3
34 -9 71 -24 71 -7 0 -21 7 -31 15 -16 12 -17 18 -8 27 19 19 14 26 -14 20
-14 -2 -39 -18 -55 -33 -17 -16 -34 -29 -39 -29 -6 0 -10 -8 -10 -18 0 -24
-19 -42 -36 -35 -18 7 -18 -9 1 -54 11 -27 12 -39 4 -49 -15 -19 -53 -18 -46
0 4 9 -2 14 -19 14 -28 0 -35 -34 -7 -40 16 -3 27 -48 11 -48 -4 0 -8 5 -8 10
0 6 -5 10 -11 10 -7 0 -10 -23 -9 -62 1 -35 2 -69 1 -75 -3 -30 -34 -9 -78 52
-45 63 -47 64 -66 47 -13 -11 -21 -13 -24 -6 -8 24 -31 47 -40 41 -6 -4 -13
-20 -16 -37 -4 -18 -13 -30 -22 -30 -8 0 -15 -7 -15 -15 0 -20 -29 -19 -52 2
-17 15 -18 14 -18 -15 0 -17 -5 -34 -11 -38 -8 -5 -7 -9 1 -14 7 -4 10 -15 7
-24 -8 -21 -37 -9 -37 15 0 10 -4 19 -10 19 -10 0 -12 -6 -14 -40 -1 -8 -8
-15 -16 -15 -33 0 -6 -62 34 -79 7 -3 4 -10 -7 -19 -26 -21 -12 -44 26 -42 40
3 57 -3 57 -21 0 -8 -10 -14 -25 -14 -34 0 -33 -33 0 -64 l25 -24 -24 -4 c-13
-3 -38 -3 -55 0 -23 3 -29 8 -21 16 7 9 5 19 -6 32 -8 10 -13 14 -10 8 8 -15
-41 -47 -60 -40 -9 3 -12 11 -9 17 4 6 1 9 -7 7 -7 -1 -23 7 -36 20 -25 25
-43 22 -35 -6 2 -10 -7 -30 -22 -46 -19 -20 -23 -31 -15 -36 8 -5 9 -10 2 -14
-6 -3 -13 -2 -17 4 -15 24 -35 9 -35 -25 0 -19 -4 -35 -10 -35 -5 0 -10 9 -10
20 0 11 -7 23 -15 26 -21 9 -19 24 4 24 10 0 22 7 25 16 4 10 12 14 22 10 12
-4 14 -1 9 13 -3 11 -1 22 5 26 6 4 8 15 5 25 -4 12 3 23 20 34 20 13 24 20
15 31 -6 7 -20 11 -31 8 -21 -6 -69 14 -69 28 0 4 11 20 25 35 32 34 32 44 0
44 -16 0 -25 6 -25 15 0 27 -20 16 -21 -12 -1 -16 -1 -31 0 -35 2 -12 -24 -9
-37 4 -8 8 -15 8 -25 0 -7 -6 -22 -9 -34 -6 -17 5 -20 1 -20 -20 0 -15 3 -29
8 -32 5 -3 9 -14 9 -25 0 -32 -40 -24 -53 11 -6 17 -15 30 -20 30 -12 0 2 -54
14 -59 6 -2 1 -10 -10 -18 -28 -19 -26 -41 4 -53 14 -5 22 -15 20 -22 -6 -15
31 -42 39 -29 3 5 -1 12 -10 15 -22 8 -7 26 22 26 19 0 28 -8 38 -32 16 -37
13 -49 -15 -66 -18 -11 -23 -11 -34 5 -11 14 -16 15 -26 6 -10 -10 -9 -20 4
-48 9 -19 12 -35 7 -35 -6 0 -10 5 -10 10 0 6 -11 10 -24 10 -32 0 -57 38 -42
63 8 14 8 20 -4 27 -23 15 -40 12 -34 -5 4 -8 10 -15 15 -15 15 0 -25 -40 -41
-41 -10 0 -9 -3 5 -9 11 -5 14 -9 6 -9 -9 -1 -12 -10 -9 -32 5 -32 -14 -51
-33 -32 -12 12 -69 4 -69 -9 0 -5 -9 -6 -20 -3 -28 9 -26 -18 2 -45 16 -15 30
-19 49 -15 34 8 47 -10 18 -26 -19 -10 -20 -13 -7 -20 10 -5 14 -17 11 -28 -3
-10 0 -22 6 -25 6 -4 11 -13 11 -21 0 -15 -38 -17 -56 -3 -13 10 -44 0 -44
-13 0 -5 5 -9 10 -9 15 0 12 -20 -5 -26 -17 -7 -34 9 -55 49 -13 26 -13 30 3
38 19 11 21 27 8 47 -7 12 -14 11 -39 -2 -30 -15 -32 -15 -42 4 -10 19 -12 19
-43 4 -18 -9 -40 -23 -49 -31 -19 -17 -54 -10 -43 8 4 5 18 14 31 19 29 11 32
40 4 40 -24 0 -26 13 -5 30 22 18 18 45 -7 62 -22 14 -22 16 -5 41 22 33 21
40 -2 32 -23 -7 -51 3 -51 20 0 7 -7 16 -16 19 -12 4 -14 13 -10 31 6 23 4 25
-18 19 -19 -4 -28 0 -41 20 -13 20 -22 24 -45 19 -33 -6 -60 15 -79 65 -8 17
-17 32 -21 32 -11 0 -40 -29 -40 -40 0 -16 -33 -20 -50 -5 -9 8 -22 15 -29 15
-7 0 -9 5 -6 10 18 30 -56 55 -83 28 -9 -9 -7 -15 6 -25 16 -14 16 -14 -3 -8
-11 3 -41 9 -67 12 -27 3 -48 9 -48 13 0 4 -9 10 -21 13 -12 3 -18 10 -15 15
7 11 -18 65 -38 81 -10 9 -19 2 -40 -29 -14 -22 -26 -46 -26 -53 0 -8 -8 -21
-18 -30 -17 -15 -21 -15 -55 10 -20 14 -37 32 -37 39 0 9 -8 10 -32 3 -41 -11
-48 -11 -48 1 0 6 8 10 17 10 9 0 13 3 10 7 -4 3 -25 0 -47 -7 -32 -11 -43
-11 -53 -1 -9 10 -8 15 6 25 9 7 17 16 17 20 0 12 -38 6 -50 -9 -17 -20 -48
-19 -93 4 -21 11 -40 15 -43 9 -3 -5 -25 -6 -48 -3 -33 5 -52 2 -82 -14 -21
-12 -32 -21 -24 -21 11 0 11 -3 2 -12 -9 -9 -12 -392 -12 -1660 0 -1510 1
-1648 16 -1648 15 0 15 -2 -1 -26 -9 -14 -15 -28 -12 -30 8 -8 37 8 36 20 -3
25 2 33 26 44 33 15 35 15 35 -3 0 -8 -6 -12 -14 -9 -7 3 -16 -3 -20 -12 -8
-21 -5 -24 32 -29 23 -3 29 0 28 13 -1 14 7 16 42 14 35 -3 41 -1 36 12 -5 12
-2 15 10 10 9 -3 16 -14 17 -23 0 -9 3 -11 5 -5 3 7 15 10 27 7 22 -5 22 -5 2
10 -19 16 -19 16 -1 17 10 0 24 -6 30 -14 14 -17 62 -33 52 -17 -4 6 -14 11
-22 11 -8 0 -14 5 -14 11 0 7 9 9 23 5 12 -3 32 -6 45 -6 13 0 21 -4 18 -9 -3
-4 6 -13 19 -19 16 -7 23 -17 19 -26 -4 -12 -20 -14 -67 -12 -34 2 -69 6 -78
10 -11 5 -19 1 -23 -10 -5 -12 -14 -15 -37 -10 -18 3 -28 2 -24 -4 3 -6 -1 -7
-9 -4 -9 3 -16 10 -16 16 0 5 -9 3 -19 -4 -14 -10 -37 -12 -83 -7 -35 3 -66 4
-70 2 -5 -2 -8 -409 -8 -903 0 -709 3 -900 13 -904 9 -5 9 -7 0 -12 -10 -4
-13 -134 -12 -597 0 -326 3 -586 6 -579 6 16 30 16 36 0 4 -10 8 -9 16 2 6 8
11 10 11 4 0 -6 -7 -17 -15 -24 -8 -7 -15 -9 -15 -5 0 5 -9 0 -20 -10 -18 -16
-20 -31 -20 -137 l0 -118 76 0 c41 0 85 5 97 11 16 9 22 9 25 0 5 -15 79 -14
86 2 5 9 7 9 12 0 4 -10 57 -13 216 -13 188 0 209 2 204 16 -3 9 -6 18 -6 20
0 2 -7 4 -15 4 -9 0 -12 6 -9 15 4 8 12 15 20 15 8 0 14 -7 14 -15 0 -8 4 -15
9 -15 5 0 13 -9 16 -20 6 -20 13 -20 851 -20 l845 1 11 24 c15 32 32 32 26 0
l-5 -25 136 0 c96 0 141 4 150 13 11 9 14 9 18 0 3 -9 33 -13 99 -13 l94 0 -6
25 c-5 19 -2 25 10 25 9 0 16 -6 15 -12 -5 -39 -13 -38 451 -38 254 0 450 4
450 9 0 15 39 19 51 5 7 -8 31 -14 60 -14 44 0 50 3 64 30 9 17 19 30 24 30
18 0 20 -15 6 -37 l-15 -23 78 0 c43 0 83 5 89 11 8 8 13 8 17 0 4 -6 28 -11
54 -11 43 0 47 2 48 25 1 14 -2 25 -7 25 -6 0 -5 9 2 21 11 21 11 21 25 -6 8
-15 14 -36 14 -46 0 -17 8 -19 69 -19 66 0 71 2 91 30 25 35 40 32 32 -5 l-4
-25 278 2 279 3 3 23 c2 12 8 22 13 22 12 0 11 -7 -1 -31 -10 -18 -6 -19 159
-19 l170 0 -10 32 c-12 44 -6 45 22 3 26 -38 69 -49 69 -17 1 16 1 16 14 0 12
-16 35 -18 237 -17 214 0 225 1 240 21 11 14 18 17 23 9 4 -6 2 -11 -3 -11 -6
0 -11 -4 -11 -10 0 -6 52 -10 135 -10 111 0 137 3 141 15 4 8 15 15 26 15 11
0 22 8 25 20 5 21 18 26 27 12 6 -11 -4 -25 -34 -45 -23 -16 -17 -17 147 -17
149 0 172 2 167 15 -4 8 -2 15 4 15 5 0 12 -7 16 -15 8 -21 106 -21 106 0 0 8
4 15 10 15 5 0 7 -7 4 -15 -5 -13 14 -15 140 -15 80 0 146 4 146 8 0 4 -5 13
-12 20 -6 6 -9 15 -5 18 3 4 12 -5 18 -20 l12 -26 169 0 168 0 0 25 c0 32 16
32 24 0 l6 -25 266 1 265 0 11 25 c12 26 38 33 38 9 0 -8 -4 -15 -10 -15 -5 0
-10 -4 -10 -10 0 -6 76 -10 209 -10 191 0 210 2 214 18 4 16 5 16 6 0 1 -16
16 -18 171 -18 146 0 169 2 164 15 -4 9 0 15 9 15 8 0 22 11 31 24 22 34 1 45
-30 15 l-24 -22 0 32 c0 32 1 32 42 30 26 -2 43 1 46 9 2 6 8 12 13 12 6 0 3
-10 -5 -22 -9 -12 -16 -30 -16 -39 0 -9 -9 -24 -20 -34 -29 -26 -25 -35 15
-35 28 0 35 4 35 20 0 11 7 20 15 20 8 0 20 9 27 19 10 16 14 17 25 6 7 -8 12
-24 11 -37 -3 -22 -1 -23 89 -26 92 -3 92 -3 99 23 3 14 10 25 14 25 16 0 22
-21 10 -35 -11 -13 8 -15 139 -14 90 0 151 4 151 10 0 5 -13 12 -30 15 -32 7
-35 11 -20 34 8 13 14 10 35 -15 13 -17 24 -33 25 -37 0 -12 38 -9 45 2 4 7
11 8 18 1 7 -5 129 -10 284 -10 213 -2 272 1 277 11 5 10 7 10 12 1 10 -21 50
-15 62 10 l11 22 0 -22 c1 -19 7 -23 30 -23 16 0 31 6 34 13 3 9 7 9 20 -1 9
-8 26 -12 39 -10 l23 3 -24 22 c-20 19 -23 26 -14 45 11 22 11 22 18 3 28 -77
26 -75 88 -75 50 0 60 3 64 20 7 25 23 26 23 2 0 -16 8 -19 60 -18 33 0 60 4
60 8 0 4 7 8 15 8 8 0 15 -4 15 -8 0 -4 39 -8 86 -9 78 -2 87 0 91 18 3 11 14
19 25 19 15 0 19 -5 15 -20 -4 -15 0 -20 14 -20 11 0 19 7 19 18 1 16 1 16 14
0 11 -16 58 -17 574 -17 432 0 562 3 563 12 1 7 1 21 0 32 -1 14 4 10 15 -13
16 -30 20 -32 70 -32 37 0 54 4 54 13 0 9 2 9 8 0 12 -19 222 -16 222 3 0 19
19 18 26 -1 5 -13 45 -15 270 -15 199 0 264 3 264 12 0 9 3 9 12 0 9 -9 81
-12 265 -12 220 0 252 2 247 15 -8 19 5 19 30 0 29 -22 246 -22 246 0 0 8 4
15 9 15 5 0 11 -7 15 -15 6 -17 57 -21 54 -4 -2 6 3 14 11 17 10 3 12 0 8 -11
-6 -15 32 -17 427 -17 l434 0 6 23 7 22 11 -22 c13 -27 52 -31 74 -8 14 13 17
13 30 0 9 -8 27 -15 42 -15 22 0 31 9 48 43 22 47 21 69 -2 60 -8 -3 -14 0
-14 6 0 6 6 11 13 11 27 0 36 21 16 41 -30 30 -23 40 22 33 30 -5 43 -3 49 7
5 7 12 10 16 6 4 -4 -2 -14 -14 -23 -11 -8 -19 -21 -16 -29 3 -7 -4 -18 -16
-25 -11 -6 -18 -15 -16 -19 3 -4 -1 -30 -8 -58 l-13 -49 98 -3 c92 -2 98 -1
93 16 -5 17 -5 17 6 1 15 -24 140 -27 140 -3 0 8 6 15 14 15 8 0 16 -7 20 -15
4 -13 39 -15 221 -15 137 0 215 4 215 10 0 6 5 10 11 10 5 0 7 -4 4 -10 -4 -7
62 -10 189 -10 108 0 196 3 196 7 0 3 -7 15 -17 25 -9 10 -11 18 -5 18 6 0 19
-11 30 -25 18 -23 27 -25 95 -25 72 0 75 1 81 25 4 14 11 23 15 20 5 -3 7 -13
4 -23 -3 -15 3 -18 41 -20 25 -1 48 3 51 8 3 6 11 10 16 10 6 0 7 -4 4 -10 -4
-6 174 -10 506 -10 489 0 511 1 496 18 -29 32 -19 162 13 162 14 0 13 -11 -5
-53 -19 -46 -20 -97 -1 -97 7 0 19 -7 26 -15 10 -12 57 -14 277 -14 232 0 263
1 253 14 -10 12 -9 15 8 15 11 0 22 -7 26 -15 5 -13 56 -15 379 -15 l375 0 16
23 17 22 -5 -23 -4 -22 306 1 c282 1 307 2 319 19 14 19 57 17 83 -5 23 -20
270 -20 270 -1 0 8 -7 22 -16 30 -8 9 -11 16 -6 16 4 0 19 -11 32 -25 13 -14
30 -23 37 -21 7 3 15 1 18 -4 3 -5 125 -9 271 -9 259 -1 265 -1 254 18 -13 26
-13 31 5 31 20 0 39 -37 22 -43 -6 -3 3 -6 21 -6 29 -1 33 2 27 19 -9 27 9 25
28 -3 12 -18 19 -20 34 -11 10 6 19 21 21 33 3 21 42 51 42 32 0 -5 -5 -11
-12 -13 -7 -3 -9 -14 -5 -30 7 -26 8 -26 107 -27 l99 -1 -9 25 c-12 32 3 33
18 1 l11 -25 205 -1 c188 -1 205 1 209 17 4 17 5 17 6 1 1 -13 10 -18 34 -18
32 0 33 1 35 48 2 64 11 102 24 102 6 0 8 -9 5 -20 -3 -13 0 -20 8 -20 15 0
31 -37 21 -47 -3 -4 -6 1 -6 9 0 9 -7 19 -16 22 -13 5 -14 2 -9 -11 5 -10 10
-33 13 -51 l4 -33 124 2 c68 1 121 6 118 10 -3 5 2 9 10 9 9 0 16 -4 16 -10 0
-21 39 -10 43 13 l4 22 2 -22 1 -23 271 0 c216 0 269 3 262 13 -26 33 -21 46
8 18 l31 -31 208 0 209 0 0 352 c-1 230 -4 357 -11 365 -7 9 -7 13 0 13 7 0
11 63 12 189 0 160 -2 190 -15 195 -8 3 -15 17 -15 32 0 22 2 24 14 14 13 -10
15 21 16 239 0 169 -3 252 -11 256 -5 4 -8 13 -5 21 3 8 1 14 -4 14 -6 0 -10
7 -10 15 0 8 7 15 14 15 22 0 23 623 1 657 -13 19 -13 22 0 17 12 -5 14 32 15
275 0 241 -2 282 -15 287 -8 4 -12 10 -9 15 3 5 10 7 15 4 5 -4 9 687 9 1797
l0 1803 -27 1 c-16 1 -38 5 -50 9 -17 6 -22 3 -25 -17 -2 -15 -11 -24 -25 -26
-13 -2 -23 -10 -23 -17 0 -8 -9 -20 -20 -28 -20 -14 -19 -15 21 -41 55 -37 40
-52 -47 -48 -48 3 -72 -1 -91 -13 -23 -15 -26 -15 -44 1 -23 21 -43 7 -44 -29
0 -17 -7 -23 -32 -25 -43 -4 -41 -16 7 -48 28 -19 37 -30 31 -38 -6 -7 -6 -18
-1 -26 7 -12 14 -9 34 13 27 29 56 36 56 13 0 -7 -14 -19 -30 -26 -17 -7 -45
-26 -61 -41 -38 -35 -41 -35 -75 -4 -35 33 -49 32 -66 -5 -7 -16 -20 -30 -29
-30 -19 0 -45 28 -51 55 -2 11 -10 19 -16 17 -7 -1 -12 4 -12 12 0 23 -68 58
-90 46 -27 -15 -57 -12 -64 5 -8 23 -57 39 -67 23 -6 -10 -14 -9 -38 5 -46 27
-70 22 -87 -18 -9 -23 -19 -33 -28 -29 -9 3 -20 -3 -28 -15 -7 -12 -23 -21
-35 -21 -12 0 -33 -4 -47 -9 -17 -7 -26 -7 -28 1 -4 11 -37 16 -115 19 -25 0
-43 6 -43 12 0 6 -7 5 -16 -5 -9 -8 -19 -45 -24 -82 -5 -37 -11 -70 -14 -73
-3 -4 -1 -12 6 -20 8 -10 8 -17 -1 -26 -9 -9 -13 -7 -18 11 -5 20 -10 22 -59
17 -30 -3 -55 -1 -59 5 -3 5 -19 10 -35 10 -16 0 -32 5 -35 11 -8 11 19 75 43
102 9 10 15 31 14 47 -2 23 1 28 14 23 11 -4 15 -16 12 -46 -2 -28 1 -42 11
-45 10 -3 12 2 8 21 -5 19 -3 26 13 30 23 6 27 27 5 27 -9 0 -18 7 -21 15 -4
8 -17 15 -30 15 -14 0 -24 6 -24 14 0 8 -5 18 -11 22 -7 4 -10 -6 -7 -32 3
-38 2 -39 -26 -36 -16 2 -44 19 -64 38 -29 28 -33 38 -27 61 3 15 14 36 22 46
9 9 13 20 10 23 -3 4 0 12 7 20 9 8 12 30 9 66 -5 64 -9 78 -22 78 -6 0 -8 -6
-5 -14 7 -19 -55 -47 -78 -35 -10 5 -18 17 -18 26 0 13 3 13 15 3 20 -17 32
-5 15 15 -7 9 -10 18 -7 21 3 4 -1 13 -9 21 -9 9 -12 22 -8 32 4 9 8 34 8 56
1 30 -3 40 -16 43 -11 2 -18 -3 -18 -11 0 -8 -7 -20 -15 -27 -9 -7 -14 -19
-11 -27 3 -7 -1 -13 -10 -13 -12 0 -13 -4 -3 -21 12 -23 -1 -46 -19 -35 -15 9
-5 123 12 148 10 14 12 27 6 38 -7 13 -5 22 6 31 14 11 16 9 13 -23 -7 -75 16
-45 27 35 2 22 0 28 -11 23 -10 -3 -17 3 -21 19 -3 14 -12 25 -20 25 -8 0 -14
5 -14 10 0 6 -9 10 -20 10 -11 0 -20 6 -20 13 -1 18 -29 52 -37 43 -4 -4 -2
-10 4 -14 16 -10 20 -44 6 -49 -8 -3 -13 5 -13 21 0 13 -4 28 -10 31 -12 7
-14 92 -2 98 4 3 25 -3 46 -14 22 -10 46 -19 53 -19 7 0 13 -11 13 -24 0 -14
5 -28 11 -31 21 -13 19 3 -4 48 -15 28 -23 55 -20 71 4 19 1 26 -10 26 -8 0
-17 7 -21 15 -8 22 -26 18 -26 -5 0 -26 -27 -26 -35 0 -10 31 -61 28 -67 -4
-4 -18 0 -26 14 -29 10 -3 18 -11 18 -17 0 -16 -51 -4 -67 16 -15 21 -22 5
-21 -49 1 -70 -48 -119 -88 -86 -15 13 -34 4 -34 -16 0 -8 -8 -18 -17 -23 -23
-14 -25 -71 -3 -99 14 -19 19 -20 24 -8 8 23 25 18 32 -9 7 -28 -22 -89 -39
-83 -7 2 -11 14 -9 25 3 20 -7 27 -30 23 -5 0 -8 15 -8 34 0 36 -13 47 -24 19
-5 -13 -9 -14 -21 -4 -9 8 -15 8 -15 2 0 -6 5 -12 11 -14 8 -3 8 -19 -1 -62
-6 -32 -10 -67 -7 -77 3 -10 1 -22 -4 -25 -5 -3 -7 -20 -3 -39 3 -18 1 -35 -4
-39 -14 -8 -14 -156 -1 -173 16 -18 5 -39 -30 -58 -29 -14 -31 -14 -31 2 0 13
-9 19 -30 20 -35 3 -36 1 -14 -32 9 -14 15 -25 13 -26 -38 -7 -66 -6 -82 3
-14 7 -22 7 -28 -3 -6 -10 -11 -10 -25 2 -15 12 -16 12 -10 -9 6 -16 3 -22 -8
-22 -20 0 -20 -9 1 -32 15 -17 15 -18 -10 -18 -20 0 -27 -5 -27 -19 0 -14 -9
-21 -31 -26 -19 -4 -29 -12 -25 -20 2 -7 -4 -15 -15 -18 -27 -7 -24 -19 11
-39 39 -22 42 -52 3 -37 -22 8 -30 6 -50 -12 l-23 -22 0 26 c0 21 5 27 21 27
12 0 19 5 17 12 -6 16 -60 30 -72 18 -16 -16 -36 -11 -36 8 0 25 -57 57 -74
43 -10 -8 -17 -7 -26 4 -7 8 -18 15 -26 15 -7 0 -17 7 -22 15 -7 14 -13 12
-43 -8 -19 -13 -32 -30 -30 -38 9 -37 5 -42 -36 -46 -26 -2 -43 0 -43 6 0 6 4
11 8 11 5 0 8 17 8 38 -2 32 -5 37 -29 40 -23 3 -27 0 -27 -21 0 -14 -8 -28
-17 -33 -22 -9 -65 -13 -78 -6 -5 3 -20 7 -33 8 -31 4 -35 8 -36 44 -1 34 -15
38 -40 11 -16 -17 -16 -20 -1 -35 9 -9 21 -16 26 -16 5 0 9 -4 9 -9 0 -4 -18
-8 -41 -8 -23 0 -44 -5 -48 -11 -3 -5 -25 -15 -47 -21 -32 -9 -43 -17 -46 -36
-4 -17 -1 -25 9 -25 10 0 13 -10 11 -32 -3 -28 -7 -33 -30 -33 -15 -1 -38 -11
-51 -23 -32 -30 -60 -28 -88 8 -16 20 -33 30 -51 30 -35 0 -35 -5 -1 -34 l26
-23 -51 -17 -52 -16 -35 31 c-19 18 -37 40 -40 50 -4 10 -28 33 -56 50 -27 18
-49 37 -49 44 0 11 -115 13 -127 2 -3 -4 -15 -1 -26 4 -11 6 -22 7 -26 3 -12
-17 -46 -30 -76 -30 -23 1 -33 8 -45 32 -13 27 -17 30 -28 18 -7 -8 -24 -14
-38 -14 -19 0 -26 -6 -30 -30 -8 -40 -29 -57 -49 -40 -9 8 -49 14 -96 15 -57
1 -83 6 -90 16 -6 11 -11 11 -21 1 -9 -9 -7 -18 11 -43 26 -35 21 -48 -13 -30
-32 17 -61 10 -59 -14 1 -11 -3 -23 -9 -26 -15 -9 -1 -59 17 -59 24 0 29 -22
7 -39 -24 -19 -35 -101 -14 -108 6 -3 12 2 12 11 0 9 5 16 10 16 12 0 13 -57
1 -64 -5 -3 -14 1 -21 9 -7 8 -21 15 -31 15 -10 0 -20 4 -23 9 -4 5 -28 12
-56 16 -27 4 -54 13 -61 21 -15 18 -3 98 16 114 19 16 19 34 -1 51 -9 7 -14
22 -11 36 5 25 -3 29 -20 12 -6 -6 -16 -9 -21 -5 -13 8 -35 102 -27 116 3 6
-3 10 -14 10 -14 0 -19 5 -15 15 4 9 -12 32 -41 61 -44 43 -46 46 -29 59 27
19 10 31 -56 42 -50 7 -55 11 -58 35 -2 18 4 33 17 45 26 22 27 45 1 68 -16
15 -25 16 -44 7 -25 -11 -36 -7 -36 14 0 7 -10 24 -22 37 -13 13 -27 31 -33
40 -11 18 -111 35 -141 23 -29 -11 4 -39 38 -32 15 3 28 1 28 -4 0 -6 -9 -10
-19 -10 -15 0 -19 -7 -17 -32 1 -31 -1 -33 -32 -31 -31 1 -33 -1 -27 -26 6
-27 5 -27 -36 -25 -27 1 -47 8 -55 19 -7 9 -17 14 -23 10 -20 -12 -11 -51 19
-80 17 -16 30 -32 30 -37 0 -4 -13 -8 -30 -8 -34 0 -39 -16 -12 -36 24 -19 -2
-18 -43 2 -25 11 -38 13 -53 5 -11 -6 -22 -7 -26 -4 -4 4 -29 9 -56 11 -52 4
-65 -9 -38 -36 9 -9 9 -15 -1 -24 -10 -11 -18 -7 -40 20 -29 34 -47 42 -37 16
9 -24 -2 -36 -24 -24 -13 7 -19 6 -24 -6 -3 -9 -12 -14 -20 -11 -8 3 -21 -2
-30 -12 -21 -23 -20 -31 3 -31 23 0 35 -26 15 -34 -21 -8 -17 -33 6 -39 11 -3
20 -11 20 -17 0 -7 -8 -10 -20 -7 -13 3 -24 -1 -30 -13 -13 -24 -13 -26 6 -44
21 -22 7 -39 -26 -33 -15 4 -36 0 -47 -8 -10 -7 -28 -13 -39 -12 -27 3 -24
-26 4 -38 28 -12 28 -35 1 -63 -24 -26 -18 -62 11 -62 23 0 32 -13 24 -34 -6
-15 -9 -15 -30 -1 -23 15 -24 14 -24 -9 0 -16 7 -26 22 -30 17 -4 20 -8 11
-17 -7 -7 -9 -24 -6 -40 6 -34 6 -34 -35 -13 -30 15 -34 14 -62 -6 -27 -19
-32 -20 -45 -6 -9 8 -15 33 -15 58 -1 49 -20 84 -37 67 -20 -20 -36 1 -18 21
10 11 15 31 13 52 -3 29 -7 33 -30 33 -29 -1 -38 10 -15 18 8 3 3 13 -15 32
-20 19 -28 38 -28 61 0 22 -5 34 -14 34 -8 0 -17 12 -20 26 -5 19 -12 25 -26
21 -26 -7 -62 34 -69 79 -8 49 -25 53 -45 10 -9 -19 -21 -36 -27 -38 -6 -2
-11 -17 -11 -33 0 -38 -14 -65 -34 -65 -11 0 -13 6 -9 20 4 13 1 22 -9 26 -9
3 -12 12 -9 22 5 11 2 14 -10 9 -11 -4 -17 -1 -17 8 0 8 9 15 20 15 17 0 19 4
14 27 -6 22 -4 25 10 20 27 -11 66 2 59 20 -4 9 2 16 16 20 15 4 21 13 21 32
0 30 -39 83 -47 64 -15 -39 -48 13 -33 53 8 19 8 30 0 38 -15 15 -12 26 5 26
17 0 39 46 29 61 -3 6 6 22 20 36 15 14 24 28 21 31 -3 3 -11 0 -17 -6 -7 -7
-20 -12 -29 -12 -9 0 -19 -7 -23 -15 -3 -8 -10 -15 -16 -15 -5 0 -10 7 -10 15
0 8 7 15 15 15 8 0 18 12 21 28 4 15 11 32 16 38 12 16 15 78 3 82 -5 2 -12
-5 -14 -15 -5 -27 -62 -75 -80 -68 -14 6 -13 9 7 25 12 10 22 26 22 35 0 9 9
28 20 42 24 30 26 63 5 63 -8 0 -15 8 -15 19 0 10 7 24 15 31 20 16 19 40 -1
40 -16 0 -16 13 2 72 6 20 -27 41 -50 32 -19 -7 -21 23 -6 76 11 37 -4 70 -15
34 -11 -34 -39 -88 -63 -120 -12 -18 -21 -37 -20 -44 2 -7 -3 -15 -11 -18 -11
-4 -13 2 -8 26 5 25 1 38 -21 63 -15 18 -26 40 -24 48 2 11 -6 16 -23 17 -25
2 -35 -19 -15 -31 15 -9 12 -25 -4 -25 -14 0 -30 -23 -57 -80 -6 -14 -15 -33
-20 -42 -5 -10 -9 -24 -9 -32 0 -7 -9 -16 -20 -19 -11 -3 -20 -12 -20 -20 0
-17 -34 -32 -50 -22 -12 8 -2 77 13 86 6 4 0 17 -13 30 l-22 24 -15 -23 -16
-23 -29 27 c-37 37 -35 65 7 108 20 21 35 46 35 60 0 14 5 26 12 28 7 3 9 14
4 32 -5 21 -11 26 -26 21 -21 -7 -26 4 -12 20 5 6 4 35 -1 65 -9 51 -11 53
-21 30 -18 -41 -26 -49 -40 -44 -10 4 -13 21 -10 65 3 36 1 59 -6 59 -5 0 -10
-15 -10 -34 0 -21 -6 -36 -15 -40 -9 -3 -15 -18 -15 -40 0 -22 -7 -40 -18 -48
-12 -8 -22 -34 -28 -68 -8 -50 -11 -55 -34 -55 -22 0 -25 4 -22 34 2 22 0 31
-7 26 -6 -3 -11 -14 -11 -23 0 -10 -9 -25 -20 -35 -12 -10 -20 -29 -20 -48 0
-17 -9 -42 -20 -56 -11 -14 -20 -32 -20 -39 0 -8 -4 -14 -9 -14 -5 0 -11 -15
-13 -34 -3 -25 1 -37 14 -45 25 -16 22 -30 -7 -41 -27 -10 -34 -44 -12 -54 6
-4 2 -4 -10 -2 -14 2 -28 -5 -42 -25 -12 -15 -21 -33 -21 -39 0 -6 -7 -25 -16
-42 -10 -19 -12 -34 -6 -40 8 -8 -1 -104 -11 -114 -6 -7 -34 29 -41 54 -6 19
-4 22 18 22 32 0 35 29 6 48 -11 7 -20 8 -20 3 0 -4 -11 -6 -25 -3 -20 3 -27
-1 -37 -24 l-12 -29 -4 25 c-5 28 -39 80 -53 80 -14 0 -11 -30 4 -36 10 -3 12
-18 7 -54 -5 -39 -3 -53 9 -64 32 -26 42 -28 56 -10 13 17 14 14 12 -31 -2
-43 -5 -51 -25 -55 -17 -4 -28 -17 -38 -45 -7 -22 -14 -41 -14 -43 0 -2 9 0
21 3 18 6 20 4 14 -14 -5 -16 -1 -23 17 -30 13 -6 17 -10 10 -10 -10 -1 -12
-12 -7 -45 7 -43 6 -44 -16 -39 -19 5 -21 3 -14 -13 4 -10 7 -29 6 -41 0 -16
4 -21 14 -16 10 3 13 12 10 24 -5 16 -1 19 23 19 21 0 35 -8 47 -27 10 -16 24
-32 32 -36 16 -10 17 -37 2 -37 -12 0 -8 -46 6 -82 5 -13 2 -18 -9 -18 -9 0
-16 8 -16 18 0 11 -8 27 -19 36 -16 15 -19 15 -24 1 -4 -8 -13 -15 -22 -15
-19 0 -20 16 0 24 8 3 15 15 15 26 0 11 6 20 14 20 24 0 28 18 11 42 -15 21
-16 21 -11 3 5 -18 1 -20 -51 -22 -56 -2 -75 -14 -70 -42 3 -23 24 -24 30 -1
3 11 12 20 21 20 20 0 20 -9 0 -31 -14 -16 -15 -23 -4 -49 9 -22 16 -28 25
-20 14 12 25 3 25 -21 0 -13 -6 -16 -21 -12 -19 5 -21 3 -15 -20 3 -14 2 -29
-4 -32 -19 -12 -11 -45 11 -45 35 0 15 -25 -22 -28 -52 -4 -65 -10 -51 -24 7
-7 12 -20 12 -30 0 -9 9 -33 20 -53 24 -43 25 -55 4 -55 -11 0 -14 -6 -9 -20
5 -15 -2 -30 -24 -52 -34 -35 -52 -30 -54 16 -2 20 -7 26 -24 26 -13 0 -23 6
-23 14 0 21 -27 38 -48 31 -29 -9 -40 -75 -16 -92 14 -10 15 -16 6 -25 -21
-21 -14 -48 12 -48 14 0 30 -10 40 -25 13 -20 25 -25 55 -25 34 0 39 -3 44
-27 7 -38 -1 -42 -24 -13 -14 19 -21 22 -27 12 -7 -10 -13 -8 -30 6 -12 11
-22 24 -22 31 0 6 -4 11 -10 11 -5 0 -10 -7 -10 -15 0 -8 -8 -15 -17 -15 -16
0 -46 37 -65 83 -10 22 -13 22 -54 -10 -24 -20 -34 -36 -34 -55 0 -18 -5 -28
-15 -28 -8 0 -15 7 -15 15 0 8 -6 15 -12 15 -7 0 -23 3 -35 6 -17 5 -25 -1
-36 -23 -8 -15 -13 -41 -10 -56 3 -15 0 -34 -7 -42 -10 -12 -9 -16 6 -21 60
-19 75 -28 72 -43 -1 -9 1 -22 5 -28 16 -26 -33 -4 -71 31 -13 11 -27 20 -30
19 -4 -1 -17 0 -30 4 -32 8 -34 2 -18 -46 9 -23 15 -42 14 -44 -3 -5 27 -47
34 -47 5 0 8 12 8 26 l0 27 40 -39 c22 -22 40 -43 40 -47 0 -11 -73 4 -83 17
-6 8 -10 8 -13 -1 -4 -8 -23 -2 -61 18 -31 16 -62 28 -69 25 -6 -2 -16 6 -23
20 -6 13 -15 24 -21 24 -13 0 -13 -17 0 -25 6 -3 10 -13 10 -21 0 -8 -4 -14
-10 -14 -5 0 -10 9 -10 20 0 11 -5 20 -11 20 -6 0 -13 -9 -16 -20 -10 -37 -38
-15 -49 38 -5 26 -12 32 -31 32 -41 0 -65 18 -62 48 4 36 -7 51 -31 45 -12 -3
-20 0 -20 7 0 8 -11 11 -31 8 -31 -5 -82 13 -94 33 -4 5 -11 7 -16 4 -12 -8
-11 2 1 26 7 13 7 19 0 19 -5 0 -10 -4 -10 -10 0 -15 -40 -12 -46 4 -8 20 -45
27 -84 16 -23 -6 -38 -6 -46 1 -7 6 -23 8 -35 4 -18 -6 -21 -4 -16 10 4 9 7
19 7 21 0 3 11 9 25 14 27 10 33 38 13 58 -6 6 -8 15 -4 19 4 5 18 -5 31 -21
21 -27 25 -28 39 -13 22 21 21 22 -24 36 -43 13 -53 36 -20 46 11 3 20 15 20
25 0 11 5 17 13 15 6 -3 25 6 41 18 28 23 29 25 13 48 -20 27 -23 49 -5 31 15
-15 48 -16 48 -1 0 5 4 7 10 4 6 -3 7 1 4 9 -5 12 0 16 19 16 38 0 41 -26 5
-44 -17 -9 -34 -13 -39 -10 -5 3 -9 -2 -9 -10 0 -8 10 -16 22 -18 26 -3 38
-38 14 -38 -9 0 -16 -4 -16 -10 0 -14 22 -12 44 5 19 15 19 15 -3 39 l-22 23
22 6 c13 4 29 1 36 -5 17 -14 29 -3 15 14 -13 16 -1 80 16 86 9 3 11 -3 7 -21
-8 -30 9 -44 31 -26 20 17 14 52 -11 55 -11 2 -21 8 -23 14 -3 8 -8 7 -18 -1
-12 -9 -18 -9 -27 0 -9 9 -7 16 13 31 19 14 22 21 12 32 -21 26 6 39 44 20 36
-17 60 -8 33 12 -15 10 -15 15 -3 37 12 24 11 27 -10 37 -13 6 -27 8 -31 4
-11 -12 -74 -9 -79 4 -9 23 59 68 104 69 24 0 17 30 -7 33 -13 2 -23 6 -23 8
0 12 30 34 44 34 20 0 20 19 1 47 -14 20 -13 24 11 48 20 20 23 29 14 39 -6 8
-8 26 -4 40 4 16 2 26 -5 26 -6 0 -11 5 -11 11 0 6 9 8 20 4 15 -5 18 -3 14 8
-3 8 2 17 10 20 24 9 19 34 -9 53 l-26 17 26 27 c18 19 25 37 25 66 l0 39 -28
-30 c-15 -16 -31 -39 -35 -49 -7 -18 -9 -19 -25 -2 -14 14 -15 18 -3 25 8 5
11 16 8 25 -3 8 0 31 8 50 17 40 18 46 8 46 -5 0 -21 -29 -38 -65 -31 -67 -31
-67 -81 -48 -10 4 -43 -55 -73 -130 -9 -23 -15 -26 -36 -21 -15 4 -32 1 -40
-6 -11 -10 -18 -10 -29 -1 -15 12 -12 39 7 81 12 24 15 30 45 65 16 19 12 47
-7 53 -10 3 -12 0 -8 -11 3 -9 2 -19 -4 -22 -5 -4 -7 -10 -4 -14 2 -5 -7 -6
-20 -3 -27 5 -34 27 -11 35 7 3 16 18 19 34 l5 28 -29 -33 c-22 -25 -28 -39
-23 -57 5 -19 2 -25 -11 -25 -13 0 -16 6 -11 25 7 29 0 32 -27 8 -10 -10 -31
-18 -47 -19 -27 -2 -27 -2 -12 29 9 17 17 41 18 52 1 11 5 30 9 43 5 14 3 22
-4 22 -6 0 -11 -6 -11 -14 0 -10 -9 -14 -25 -13 -24 2 -27 9 -18 34 3 7 -4 24
-16 39 -21 26 -21 26 -1 54 33 46 18 70 -21 34 -25 -22 -52 -11 -44 18 6 23 6
23 -10 3 -9 -12 -14 -29 -10 -42 4 -18 0 -24 -22 -29 -16 -3 -35 -8 -43 -10
-24 -6 -20 78 4 105 24 26 13 40 -13 17 -12 -11 -27 -15 -40 -11 -16 5 -19 12
-14 40 4 26 2 36 -11 41 -9 3 -16 10 -16 15 0 4 7 6 15 3 22 -9 18 5 -7 27
-28 22 -47 24 -54 4 -4 -8 -13 -15 -21 -15 -8 0 -11 5 -7 11 3 6 9 39 11 73 7
90 9 109 16 129 15 37 16 47 6 47 -5 0 -12 -13 -15 -30 -8 -40 -29 -57 -49
-40 -8 7 -15 23 -15 37 0 20 -4 23 -21 18 -21 -7 -22 -5 -15 33 3 22 9 47 12
56 4 10 1 16 -8 16 -8 0 -20 -16 -27 -35 -11 -32 -14 -34 -34 -23 l-22 13 23
3 c24 4 42 36 42 78 0 27 -15 32 -24 7 -6 -14 -8 -14 -21 3 -17 22 -20 70 -5
79 12 7 14 45 2 45 -4 0 -17 -19 -29 -42z m-181 -1845 c10 -9 18 -27 18 -39 0
-16 4 -22 14 -18 11 4 14 -9 14 -68 1 -145 -14 -165 -78 -108 -18 17 -30 30
-25 30 4 0 0 9 -10 20 -16 18 -16 20 -2 20 10 0 17 7 17 15 0 12 -9 15 -37 13
-29 -2 -38 1 -41 15 -2 12 3 17 17 17 11 0 23 4 26 10 9 15 75 9 75 -7 0 -8 5
-11 10 -8 19 11 10 56 -15 79 -27 25 -33 46 -13 46 6 0 20 -7 30 -17z m-1137
-2363 c18 0 35 -3 39 -7 13 -13 47 -10 42 4 -6 16 24 17 74 3 25 -7 36 -7 42
3 5 8 8 8 8 1 0 -7 10 -9 25 -6 14 2 22 8 19 13 -3 5 6 4 20 -3 14 -6 26 -17
26 -23 0 -20 -28 -38 -47 -30 -29 12 -63 14 -63 4 0 -5 -5 -9 -11 -9 -6 0 -8
7 -5 16 5 13 3 14 -6 7 -15 -12 -167 -12 -185 0 -7 4 -16 1 -21 -9 -6 -11 -14
-14 -22 -9 -8 5 -38 9 -68 11 -64 3 -89 19 -43 29 17 3 35 4 41 0 6 -4 17 -2
25 5 9 7 15 8 20 0 10 -16 35 -12 35 7 0 13 3 14 12 5 7 -7 26 -12 43 -12z"/>
</g>
</svg>
